1.0	0.9935579979435682
1.1	0.9924531007953096
1.2	0.9915022179625952
1.3	0.9906822316384262
1.4	0.9890945082578152
1.5	0.9886383516324383
1.6	0.9881567727064468
1.7000000000000002	0.9877662108336203
1.8	0.9874643937779473
1.9	0.9872509588133391
2.0	0.9871275956538953
2.1	0.9870983888840208
2.2	0.9871705374240535
2.3	0.9873556812623422
2.4000000000000004	0.9876725843727989
2.5	0.9881530840788342
2.6	0.988858178667767
2.7	0.9899393039463904
2.8	0.03402716506942925
2.9000000000000004	0.025049711358297432
3.0	0.022483233371091142
3.1	0.020866600370432833
3.2	0.019691510029840195
3.3000000000000003	0.018772318041760876
3.4000000000000004	0.018019565565934842
3.5	0.017383320529686216
3.6	0.016732255829493437
3.7	0.016178929891483486
3.8000000000000003	0.01570682647462231
3.9000000000000004	0.015288951715293875
4.0	0.014912975641419001
4.1	0.01457106234196645
4.2	0.014257667604010558
4.300000000000001	0.013968653682333729
4.4	0.013700829512786918
4.5	0.013451677527037938
4.6	0.013219177798863578
4.7	0.013001688774091918
4.800000000000001	0.01279786334835685
4.9	0.011991753807022377
5.0	0.011825902188839756
5.1000000000000005	0.011670132421217647
5.2	0.011523879590658634
5.3	0.011386682192569534
5.4	0.01125816812056489
5.5	0.011138043930213436
5.6000000000000005	0.011026086674302491
5.7	0.010922137806260343
5.800000000000001	0.010826098782097638
5.9	0.010737928096459974
6.0	0.010657639576679841
6.1000000000000005	0.010585301809449688
6.2	0.010521038627793475
6.300000000000001	0.010465030636771082
6.4	0.010417517788276582
6.5	0.010378803057343325
6.6000000000000005	0.010349257315048906
6.7	0.01032932553407591
6.800000000000001	0.010319534519419617
6.9	0.010320502418012039
7.0	0.010332950333560282
7.1000000000000005	0.010357716477034491
7.2	0.01039577340491258
7.300000000000001	0.01044824907235436
7.4	0.010516452627893634
7.5	0.010601906198890856
7.6000000000000005	0.010706384308038943
7.7	0.010831963128488416
7.800000000000001	0.010981082580316324
7.9	0.011156625403823298
8.0	0.011362019005754164
8.100000000000001	0.011601368324194346
8.2	0.011879631686311948
8.3	0.012202857422822776
8.4	0.012578508242332136
8.5	0.01301591557731545
8.600000000000001	0.013526932042801459
8.7	0.01412689618585944
8.8	0.014836109479930238
8.9	0.015682194702382773
9.0	0.0167040626402304
9.1	0.017959039490606815
9.200000000000001	0.019536837627219642
9.3	0.021590452473778273
9.4	0.024418065081659054
9.5	0.02876047410441112
9.6	0.038339965830694364
9.700000000000001	0.005082854738779539
9.8	0.004346932453646118
9.9	0.00390805290149281
10.0	0.00360169465227453
10.1	0.0033721637248148558
10.200000000000001	0.003193095541715052
10.3	0.0030497627415565207
10.4	0.002933057215929069
10.5	0.002836939442511201
10.600000000000001	0.0027571949924801403
10.700000000000001	0.0026907656913301627
10.8	0.0026353624929002103
10.9	0.0025892282544418125
11.0	0.002550985561507543
11.100000000000001	0.0025195353712396964
11.200000000000001	0.002493987345234113
11.3	0.002473610665709367
11.4	0.0024577985031441468
11.5	0.0024460418259894083
11.600000000000001	0.0024379097527179082
11.700000000000001	0.0024330345796636688
11.8	0.002431100211536921
11.9	0.0024318331084677656
12.0	0.0024349951214334056
12.100000000000001	0.0024403777635006274
12.200000000000001	0.0024477975858922764
12.3	0.002457092413534547
12.4	0.002468118255957031
12.5	0.0024807467537826334
12.600000000000001	0.0024948630536041215
12.700000000000001	0.002510364028218971
12.8	0.002527156777327227
12.9	0.002545157357626386
13.0	0.002564289701567396
13.100000000000001	0.002584484692417754
13.200000000000001	0.0026056793694040348
13.3	0.002627816241737442
13.4	0.0026508426942262256
13.5	0.00267471047028937
13.600000000000001	0.002699375220674511
13.700000000000001	0.0027247961081861825
13.8	0.0027509354603547616
13.9	0.00277775846330869
14.0	0.002805232891050015
14.100000000000001	0.002833328865625837
14.200000000000001	0.0028620186438515693
14.3	0.00289127642728519
14.4	0.0029210781924824936
14.5	0.002951401539015687
14.600000000000001	0.002982225553092753
14.700000000000001	0.003013530684914242
14.8	0.003045298638157349
14.9	0.0030775122701914995
15.0	0.0031101555018026453
15.100000000000001	0.003143213235380542
15.200000000000001	0.0031766712807375537
15.3	0.0032105162874715852
15.4	0.0032447356834847127
15.5	0.0032793176188614177
15.600000000000001	0.0033142509145907685
15.700000000000001	0.0033495250156457715
15.8	0.003385129947988758
15.9	0.0034210562791202864
16.0	0.003457295081831509
16.1	0.003493837900857128
16.200000000000003	0.0035306767221586688
16.3	0.0035678039446112968
16.4	0.0036052123538386866
16.5	0.003642895097977672
16.6	0.003680845665390285
16.700000000000003	0.0037190578639069343
16.8	0.0037575258016075918
16.9	0.003796243868981902
17.0	0.0038352067223530436
17.1	0.0038744092684612746
17.2	0.003913846650112571
17.3	0.0039535142328069785
17.400000000000002	0.003993407592268679
17.5	0.004033522502807187
17.6	0.004073854926445206
17.7	0.004114401002739778
17.8	0.00415515703927941
17.900000000000002	0.004196119502844543
18.0	0.004237285010972549
18.1	0.004278650324167216
18.2	0.004320212338556374
18.3	0.0043619680789970154
18.400000000000002	0.00440391469259621
18.5	0.004446049442618701
18.6	0.004488369702754399
18.7	0.0045308729517210865
18.8	0.00457355676817958
18.900000000000002	0.004616418825940278
19.0	0.004659456889441956
19.1	0.004702668809484524
19.2	0.0047460525192024525
19.3	0.004789606030288819
19.400000000000002	0.004833327429285721
19.5	0.004877214874293521
19.6	0.004921266591711296
19.7	0.004965480873186298
19.8	0.005009856072724202
19.900000000000002	0.005054390603950213
20.0	0.005099082937512018
20.1	0.005143931598615993
20.200000000000003	0.0051889351646888125
20.3	0.005234092263157006
20.400000000000002	0.005279401569337707
20.5	0.005324861804433948
20.6	0.005370471733628728
20.700000000000003	0.005416230164272072
20.8	0.005462135944155873
20.900000000000002	0.005508187959854912
21.0	0.00555438513519762
21.1	0.005600726429771758
21.200000000000003	0.005647210837476488
21.3	0.005693837385182727
21.400000000000002	0.005740605131441785
21.5	0.005787513165253184
21.6	0.0058345606048887805
21.700000000000003	0.005881746596769811
21.8	0.005929070314394534
21.900000000000002	0.005976530957313471
22.0	0.0060241277501501145
22.1	0.006071859941664585
22.200000000000003	0.006119726803858065
22.3	0.006167727631116182
22.400000000000002	0.00621586173938907
22.5	0.00626412846540655
22.6	0.006312527165926572
22.700000000000003	0.006361057217059039
22.8	0.006409718013479583
22.900000000000002	0.0064585089677975036
23.0	0.0065074295099774625
23.1	0.006556479086700003
23.200000000000003	0.006605657160778679
23.3	0.006654963210600749
23.400000000000002	0.006704396729590397
23.5	0.006753957225693406
23.6	0.0068036442208823725
23.700000000000003	0.006853457250681455
23.8	0.006903395863709799
23.900000000000002	0.006953459621242775
24.0	0.007003648096790304
24.1	0.007053960875691346
24.200000000000003	0.007104397554724037
24.3	0.007154957741730663
24.400000000000002	0.007205641055256885
24.5	0.007256447124204404
24.6	0.00730737558748013
24.700000000000003	0.007358426093481392
24.8	0.0074095983004584
24.900000000000002	0.007460891875521088
25.0	0.007512306494584082
25.1	0.007563841842089746
25.200000000000003	0.007615497610741207
25.3	0.00766727350124502
25.400000000000002	0.007719169222063034
25.5	0.007771184489173209
25.6	0.00782331902583872
25.700000000000003	0.007875572562385481
25.8	0.00792794483598713
25.900000000000002	0.007980435590457892
26.0	0.008033044576052365
26.1	0.008085771549272312
26.200000000000003	0.008138616272680178
26.3	0.008191578514718816
26.400000000000002	0.008244658049537551
26.5	0.008297854656823957
26.6	0.008351168121641411
26.700000000000003	0.008404598234272007
26.8	0.008458144790396218
26.900000000000002	0.008511807590006826
27.0	0.008565586438102743
27.1	0.008619481144367794
27.200000000000003	0.008673491522993916
27.3	0.008727617392552683
27.400000000000002	0.008781858575871064
27.5	0.008836214899911184
27.6	0.008890686195654002
27.700000000000003	0.008945272297986575
27.8	0.00899997304559304
27.900000000000002	0.009054788280849064
28.0	0.009109717849719427
28.1	0.009164761601659141
28.200000000000003	0.009219919389517321
28.3	0.009275191069444385
28.400000000000002	0.009330576500801834
28.5	0.00938607554607498
28.6	0.009441688070788368
28.700000000000003	0.009497413943423719
28.8	0.009553253035340386
28.900000000000002	0.009609205220698273
29.0	0.00966527037638299
29.1	0.009721448381638494
29.200000000000003	0.009777739118827702
29.3	0.009834142472635223
29.400000000000002	0.009890658330149496
29.5	0.009947286580843297
29.6	0.01000402711651138
29.700000000000003	0.010060879831209903
29.8	0.01011784462119772
29.900000000000002	0.01017492138487929
30.0	0.010232110022749364
30.1	0.010289410437339074
30.200000000000003	0.010346822533163873
30.3	0.01040434621667254
30.400000000000002	0.010461981396198234
30.5	0.010519727981910247
30.6	0.010577585885767824
30.700000000000003	0.010635555021474653
30.8	0.010693635304435149
30.900000000000002	0.01075182665171171
31.0	0.0108101289819831
31.1	0.010868542215504255
31.200000000000003	0.010927066274066902
31.3	0.010985701080961563
31.400000000000002	0.011044446560940373
31.5	0.011103302640181025
31.6	0.011162269246460847
31.700000000000003	0.011221346308531449
31.8	0.011280533756608084
31.900000000000002	0.011339831522227107
32.0	0.011399239538184171
32.1	0.0114587577385036
32.2	0.011518386058408814
32.3	0.011578124434293098
32.400000000000006	0.011637972803691636
32.5	0.011697931105253875
32.6	0.011757999278716983
32.7	0.011818177264879713
32.8	0.011878465005577061
32.900000000000006	0.011938862443655707
33.0	0.011999369522949867
33.1	0.012059986188258012
33.2	0.012120712385319936
33.300000000000004	0.012181548060794701
33.4	0.012242493162238936
33.5	0.012303547638085763
33.6	0.012364711437624276
33.7	0.01242598451097955
33.800000000000004	0.012487366809093129
33.9	0.012548858283704011
34.0	0.012610458887330174
34.1	0.012672168573250486
34.2	0.012733987295487133
34.300000000000004	0.012795915008128707
34.4	0.012857951667020296
34.5	0.012920097228569922
34.6	0.012982351649612789
34.7	0.01304471488764604
34.800000000000004	0.013107186900813762
34.9	0.013169767647892237
35.0	0.013232457088275638
35.1	0.013295255181961783
35.2	0.013358161889538717
35.300000000000004	0.013421177172171162
35.4	0.013484300991587594
35.5	0.013547533310067571
35.6	0.013610874090429182
35.7	0.013674323296017143
35.800000000000004	0.013737880890690897
35.9	0.013801546838813069
36.0	0.01386532110523821
36.1	0.01392920365530195
36.2	0.01399319445481015
36.300000000000004	0.014057293470028518
36.4	0.014121500667672341
36.5	0.01418581601489655
36.6	0.014250239479286024
36.7	0.014314771028846048
36.800000000000004	0.014379410631993042
36.9	0.014444158257545473
37.0	0.014509013874715057
37.1	0.014573977453098106
37.2	0.014639048963128343
37.300000000000004	0.014704228376186675
37.4	0.014769515661439485
37.5	0.014834910789917846
37.6	0.014900413732996219
37.7	0.014966024462384936
37.800000000000004	0.015031742950123108
37.9	0.01509756916857098
38.0	0.015163503090403388
38.1	0.015229544688602577
38.2	0.015295693936451683
38.300000000000004	0.015361950807528104
38.4	0.015428315275697128
38.5	0.01549478731510557
38.6	0.015561366900175864
38.7	0.015628054005599943
38.800000000000004	0.01569484860633338
38.9	0.015761750677589774
39.0	0.015828760194835145
39.1	0.015895877133782384
39.2	0.01596310147038596
39.300000000000004	0.016030433180836787
39.400000000000006	0.016097872239919344
39.5	0.01616541862500186
39.6	0.016233072313737426
39.7	0.016300833283225798
39.800000000000004	0.01636870151077935
39.900000000000006	0.01643667697391844
40.0	0.016504759650367084
40.1	0.016572949518048382
40.2	0.016641246555080542
40.300000000000004	0.016709650739772514
40.400000000000006	0.016778162050619952
40.5	0.01684678046630123
40.6	0.016915505965673646
40.7	0.016984338527769465
40.800000000000004	0.01705327813179227
40.900000000000006	0.017122324757113314
41.0	0.01719147838326782
41.1	0.017260738989951754
41.2	0.01733010655701815
41.300000000000004	0.01739958106447386
41.400000000000006	0.01746916249247633
41.5	0.017538850821330308
41.6	0.01760864603148483
41.7	0.017678548103530034
41.800000000000004	0.01774855701819422
41.900000000000006	0.017818672756340907
42.0	0.0178888952989659
42.1	0.01795922462719465
42.2	0.018029660722279284
42.300000000000004	0.018100203565596152
42.400000000000006	0.018170853138642817
42.5	0.018241609423035984
42.6	0.0183124724005086
42.7	0.01838344205290735
42.800000000000004	0.018454518362190562
42.900000000000006	0.018525701310425656
43.0	0.018596990879786682
43.1	0.01866838705255228
43.2	0.018739889811103354
43.300000000000004	0.018811499137920927
43.400000000000006	0.01888321501558404
43.5	0.018955037426767594
43.6	0.019026966354223983
43.7	0.01909900178082018
43.800000000000004	0.019171143689516366
43.900000000000006	0.01924339206335108
44.0	0.01931574688544908
44.1	0.01938820813901932
44.2	0.019460775807353232
44.300000000000004	0.019533449873823088
44.400000000000006	0.019606230321879997
44.5	0.01967911713505254
44.6	0.01975211029694484
44.7	0.019825209791235143
44.800000000000004	0.019898415601674144
44.900000000000006	0.019971727712083425
45.0	0.020045146106353957
45.1	0.02011867076844463
45.2	0.02019230168238091
45.300000000000004	0.02026603883225307
45.400000000000006	0.02033988220221513
45.5	0.02041383177648336
45.6	0.020487887539335052
45.7	0.020562049475106883
45.800000000000004	0.020636317568194087
45.900000000000006	0.020710691803048853
46.0	0.020785172164179223
46.1	0.020859758636147956
46.2	0.020934451203571108
46.300000000000004	0.021009249851117205
46.400000000000006	0.021084154563505795
46.5	0.021159165325506595
46.6	0.021234282121938276
46.7	0.02130950493766732
46.800000000000004	0.021384833757607146
46.900000000000006	0.021460268566717077
47.0	0.021535809350001156
47.1	0.021611456092507468
47.2	0.02168720877932676
47.300000000000004	0.02176306739559201
47.400000000000006	0.021839031926477098
47.5	0.0219151023571961
47.6	0.021991278673002348
47.7	0.022067560859187624
47.800000000000004	0.02214394890108123
47.900000000000006	0.02222044278404927
48.0	0.02229704249349367
48.1	0.022373748014851626
48.2	0.022450559333594612
48.300000000000004	0.022527476435227702
48.400000000000006	0.022604499305288753
48.5	0.022681627929347907
48.6	0.02275886229300666
48.7	0.022836202381897024
48.800000000000004	0.022913648181681418
48.900000000000006	0.022991199678051254
49.0	0.023068856856726737
49.1	0.0231466197034563
49.2	0.023224488204015625
49.300000000000004	0.0233024623442072
49.400000000000006	0.023380542109859813
49.5	0.02345872748682779
49.6	0.02353701846099059
49.7	0.023615415018251932
49.800000000000004	0.023693917144539743
49.900000000000006	0.023772524825805115
50.0	0.023851238048021996
50.1	0.02393005679718679
50.2	0.02400898105931759
50.300000000000004	0.024088010820453844
50.400000000000006	0.02416714606665586
50.5	0.024246386784004186
50.6	0.02432573295859944
50.7	0.024405184576561437
50.800000000000004	0.02448474162402918
50.900000000000006	0.02456440408716004
51.0	0.02464417195212978
51.1	0.024724045205131554
51.2	0.024804023832375854
51.300000000000004	0.02488410782009019
51.400000000000006	0.02496429715451858
51.5	0.025044591821920953
51.6	0.025124991808573104
51.7	0.025205497100766243
51.800000000000004	0.025286107684806398
51.900000000000006	0.025366823547014448
52.0	0.025447644673725504
52.1	0.025528571047829546
52.2	0.02560960265871137
52.300000000000004	0.025690739492871453
52.400000000000006	0.025771981536687128
52.5	0.02585332877654787
52.6	0.02593478119885564
52.7	0.026016338790024105
52.800000000000004	0.026098001536478503
52.900000000000006	0.02617976942465543
53.0	0.02626164244100246
53.1	0.02634362057197796
53.2	0.0264257038040506
53.300000000000004	0.026507892123699594
53.400000000000006	0.02659018551741386
53.5	0.02667258397169211
53.6	0.026755087473042574
53.7	0.02683769600798266
53.800000000000004	0.02692040956303889
53.900000000000006	0.02700322812474648
54.0	0.027086151679649274
54.1	0.027169180214299486
54.2	0.027252313715257277
54.300000000000004	0.027335552169091094
54.400000000000006	0.027418895562376793
54.5	0.02750234388169801
54.6	0.027585897113645553
54.7	0.027669555244817467
54.800000000000004	0.027753318261818795
54.900000000000006	0.02783718615126135
55.0	0.027921158899763685
55.1	0.028005236493950633
55.2	0.02808941892045354
55.300000000000004	0.0281737061659097
55.400000000000006	0.028258098216962325
55.5	0.028342595060260826
55.6	0.028427196682459892
55.7	0.0285119030702199
55.800000000000004	0.028596714210206747
55.900000000000006	0.028681630089091328
56.0	0.028766650693549885
56.1	0.02885177601026342
56.2	0.028937006025918068
56.300000000000004	0.029022340727204467
56.400000000000006	0.029107780100818
56.5	0.029193324133458445
56.6	0.029278972811830086
56.7	0.029364726122641283
56.800000000000004	0.029450584052604856
56.900000000000006	0.029536546588437382
57.0	0.02962261371685964
57.1	0.02970878542459594
57.2	0.02979506169837476
57.300000000000004	0.029881442524927873
57.400000000000006	0.02996792789099086
57.5	0.030054517783302717
57.6	0.030141212188605784
57.7	0.03022801109364574
57.800000000000004	0.03031491448517157
57.900000000000006	0.03040192234993525
58.0	0.030489034674692102
58.1	0.030576251446200096
58.2	0.030663572651220463
58.300000000000004	0.03075099827651705
58.400000000000006	0.030838528308856684
58.5	0.03092616273500875
58.6	0.031013901541745447
58.7	0.031101744715841446
58.800000000000004	0.03118969224407425
58.900000000000006	0.03127774411322349
59.0	0.031365900310071346
59.1	0.03145416082140247
59.2	0.031542525634003886
59.300000000000004	0.031630994734664755
59.400000000000006	0.03171956811017656
59.5	0.03180824574733293
59.6	0.03189702763292971
59.7	0.03198591375376487
59.800000000000004	0.03207490409663833
59.900000000000006	0.032163998648352086
60.0	0.032253197395710156
60.1	0.032342500325518636
60.2	0.032431907424585335
60.300000000000004	0.03252141867971995
60.400000000000006	0.032611034077734365
60.5	0.032700753605441786
60.6	0.03279057724965767
60.7	0.03288050499719915
60.800000000000004	0.032970536834884934
60.900000000000006	0.033060672749535634
61.0	0.033150912727973506
61.1	0.03324125675702251
61.2	0.03333170482350845
61.300000000000004	0.033422256914258305
61.400000000000006	0.03351291301610126
61.5	0.03360367311586781
61.6	0.033694537200390076
61.7	0.033785505256501806
61.800000000000004	0.03387657727103835
61.900000000000006	0.033967753230836575
62.0	0.03405903312273502
62.1	0.034150416933573735
62.2	0.03424190465019421
62.300000000000004	0.03433349625943948
62.400000000000006	0.03442519174815428
62.5	0.03451699110318475
