1.0	0.9171514447474528
1.1	0.9974905192099761
1.2	0.9975045673994437
1.3	0.9975563475457927
1.4	0.9976261786605488
1.5	0.9977637918971635
1.6	0.9978691678244516
1.7000000000000002	0.9979714007561231
1.8	0.9980693660142956
1.9	0.9981625537201937
2.0	0.9982508485025464
2.1	0.9983343813243165
2.2	0.998413456478711
2.3	0.9984885015044559
2.4000000000000004	0.9985600673435623
2.5	0.998628872622334
2.6	0.9986959934569303
2.7	0.9987633108446832
2.8	0.9988379665057155
2.9000000000000004	0.9998707245544324
3.0	0.9999301926245018
3.1	0.9999502663821583
3.2	0.9999601523162059
3.3000000000000003	0.9999659794354598
3.4000000000000004	0.9999698042444143
3.5	0.9999725037823329
3.6	0.9999606678828963
3.7	0.9999080282888045
3.8000000000000003	0.9998460963892943
3.9000000000000004	0.9997830384473376
4.0	0.9997216563028626
4.1	0.999662996104418
4.2	0.9996073881387737
4.300000000000001	0.999554848748732
4.4	0.9995052550255239
4.5	0.9994584268901034
4.6	0.9994141663484577
4.7	0.9993722764591386
4.800000000000001	0.9993325704113578
4.9	0.9992954619695208
5.0	0.9992596594640705
5.1000000000000005	0.9992255520130273
5.2	0.999193009308931
5.3	0.9991619138036296
5.4	0.9991321594642357
5.5	0.9991036505564552
5.6000000000000005	0.9990763004841298
5.7	0.9990500308378881
5.800000000000001	0.9990247705140615
5.9	0.9990004548035666
6.0	0.9989770247238597
6.1000000000000005	0.9989544264207115
6.2	0.9989326105511511
6.300000000000001	0.9989115318409486
6.4	0.9988911486809042
6.5	0.9988714227416269
6.6000000000000005	0.9988523186665222
6.7	0.998833803742186
6.800000000000001	0.9988158476300224
6.9	0.9987984221972489
7.0	0.9987815012918603
7.1000000000000005	0.9987650605637491
7.2	0.99874907724497
7.300000000000001	0.9987335301827247
7.4	0.9987183995682558
7.5	0.9987036668355286
7.6000000000000005	0.9986893145725371
7.7	0.9986753264283267
7.800000000000001	0.9986616870483768
7.9	0.9986483819472396
8.0	0.9986353974702546
8.100000000000001	0.998622720741191
8.2	0.9986103395954401
8.3	0.9985982425274167
8.4	0.9985864186420677
8.5	0.9985748576015021
8.600000000000001	0.9985635496108666
8.7	0.9985524853514032
8.8	0.9985416559517489
8.9	0.998531052951099
9.0	0.9985206682615864
9.1	0.998510494127305
9.200000000000001	0.9985005230994055
9.3	0.9984907478984199
9.4	0.9984811613474837
9.5	0.9984717560876941
9.6	0.9984625233646073
9.700000000000001	0.9984539750191531
9.8	0.9984458505751699
9.9	0.9984379658166922
10.0	0.9984302901618723
10.1	0.998422804087247
10.200000000000001	0.9984154930272757
10.3	0.9984083453094779
10.4	0.9984013511726825
10.5	0.9983945022221901
10.600000000000001	0.9983877910954164
10.700000000000001	0.9983812112408726
10.8	0.9983747567766691
10.9	0.9983684223594992
11.0	0.9983622030738959
11.100000000000001	0.9983560944186904
11.200000000000001	0.998350092233516
11.3	0.9983441926564713
11.4	0.9983383920893207
11.5	0.9983326871684921
11.600000000000001	0.9983270747406229
11.700000000000001	0.9983215518410625
11.8	0.9983161156723719
11.9	0.9983107636039112
12.0	0.9983054931418617
12.100000000000001	0.998300301922887
12.200000000000001	0.9982951877036239
12.3	0.9982901483513498
12.4	0.998285181835663
12.5	0.9982802862210252
12.600000000000001	0.9982754596600577
12.700000000000001	0.998270700386625
12.8	0.9982660066880771
12.9	0.9982613769734844
13.0	0.9982568096943476
13.100000000000001	0.9982523033651306
13.200000000000001	0.9982478565594695
13.3	0.9982434679066925
13.4	0.9982391360886222
13.5	0.9982348598366242
13.600000000000001	0.998230637928883
13.700000000000001	0.9982264691878823
13.8	0.9982223524819391
13.9	0.9982182867478091
14.0	0.9982142708895667
14.100000000000001	0.9982103038832809
14.200000000000001	0.9982063847391663
14.3	0.9982025124999435
14.4	0.9981986862393027
14.5	0.9981949050604677
14.600000000000001	0.9981911680948462
14.700000000000001	0.9981874745007664
14.8	0.9981838234622844
14.9	0.9981802141880675
15.0	0.9981766459026502
15.100000000000001	0.9981731178403204
15.200000000000001	0.9981696293068502
15.3	0.9981661796007743
15.4	0.9981627680405321
15.5	0.9981593939636725
15.600000000000001	0.9981560567261062
15.700000000000001	0.9981527557013935
15.8	0.9981494902800709
15.9	0.9981462598690093
16.0	0.9981430638908078
16.1	0.9981399017832128
16.200000000000003	0.9981367729985697
16.3	0.9981336770108199
16.4	0.9981306133091548
16.5	0.9981275813693034
16.6	0.9981245806961968
16.700000000000003	0.9981216108069704
16.8	0.9981186712305462
16.9	0.9981157615072378
17.0	0.9981128811883703
17.1	0.9981100298359177
17.2	0.998107207022157
17.3	0.9981044123293327
17.400000000000002	0.9981016453493413
17.5	0.9980989056834237
17.6	0.9980961929418732
17.7	0.9980935067386437
17.8	0.9980908466940521
17.900000000000002	0.998088212456566
18.0	0.9980856036704798
18.1	0.9980830199878492
18.2	0.9980804610682616
18.3	0.9980779265786166
18.400000000000002	0.9980754161929115
18.5	0.9980729295920376
18.6	0.9980704664635851
18.7	0.9980680265016492
18.8	0.9980656094066508
18.900000000000002	0.9980632148851585
19.0	0.9980608426497186
19.1	0.998058492418692
19.2	0.9980561639168427
19.3	0.9980538568829219
19.400000000000002	0.9980515710417739
19.5	0.9980493061332294
19.6	0.9980470619021881
19.7	0.9980448380984874
19.8	0.9980426344767718
19.900000000000002	0.998040450796368
20.0	0.9980382868211674
20.1	0.9980361423195047
20.200000000000003	0.9980340170640507
20.3	0.9980319108316988
20.400000000000002	0.9980298234034602
20.5	0.9980277545643638
20.6	0.998025704103354
20.700000000000003	0.9980236718131963
20.8	0.9980216574903837
20.900000000000002	0.9980196609318821
21.0	0.9980176819417436
21.1	0.9980157203299592
21.200000000000003	0.9980137759071779
21.3	0.9980118484873558
21.400000000000002	0.9980099378876764
21.5	0.9980080439284772
21.6	0.9980061664331757
21.700000000000003	0.9980043052281977
21.8	0.9980024601429113
21.900000000000002	0.9980006310095565
22.0	0.9979988176631842
22.1	0.9979970199415888
22.200000000000003	0.997995237685251
22.3	0.9979934707372751
22.400000000000002	0.9979917189433324
22.5	0.9979899821516055
22.6	0.9979882602127319
22.700000000000003	0.9979865529861418
22.8	0.9979848603256645
22.900000000000002	0.9979831820841133
23.0	0.9979815181212344
23.1	0.9979798682989705
23.200000000000003	0.9979782324814163
23.3	0.9979766105347712
23.400000000000002	0.9979750023272965
23.5	0.9979734077292713
23.6	0.9979718266129503
23.700000000000003	0.9979702588525237
23.8	0.9979687043240771
23.900000000000002	0.997967162905553
24.0	0.9979656344767109
24.1	0.9979641189190934
24.200000000000003	0.9979626161159885
24.3	0.9979611259523931
24.400000000000002	0.9979596483149824
24.5	0.997958183092073
24.6	0.9979567301716187
24.700000000000003	0.9979552894187962
24.8	0.9979538607547451
24.900000000000002	0.9979524440744799
25.0	0.9979510392745157
25.1	0.9979496462528386
25.200000000000003	0.9979482649088809
25.3	0.9979468951434899
25.400000000000002	0.9979455368589045
25.5	0.9979441899587274
25.6	0.9979428543479003
25.700000000000003	0.9979415299326796
25.8	0.9979402166206104
25.900000000000002	0.9979389143205066
26.0	0.9979376229424235
26.1	0.9979363423976386
26.200000000000003	0.9979350725986268
26.3	0.9979338134590419
26.400000000000002	0.9979325648936923
26.5	0.9979313268185231
26.6	0.9979300991505948
26.700000000000003	0.9979288818080639
26.8	0.9979276747419121
26.900000000000002	0.9979264778453545
27.0	0.9979252910350082
27.1	0.9979241142327647
27.200000000000003	0.9979229473615071
27.3	0.9979217903450899
27.400000000000002	0.9979206431083255
27.5	0.9979195055769648
27.6	0.9979183776776808
27.700000000000003	0.9979172593380549
27.8	0.9979161504865589
27.900000000000002	0.9979150510525415
28.0	0.9979139609662118
28.1	0.9979128801586253
28.200000000000003	0.9979118085616698
28.3	0.9979107461080509
28.400000000000002	0.9979096927312773
28.5	0.9979086483656505
28.6	0.9979076129462471
28.700000000000003	0.9979065864089091
28.8	0.9979055686902307
28.900000000000002	0.9979045597275434
29.0	0.9979035594589086
29.1	0.99790256779945
29.200000000000003	0.9979015847083545
29.3	0.9979006101296891
29.400000000000002	0.9978996440045987
29.5	0.9978986862749064
29.6	0.9978977368831029
29.700000000000003	0.9978967957723345
29.8	0.9978958628863953
29.900000000000002	0.9978949381697149
30.0	0.9978940215673494
30.1	0.9978931130249726
30.200000000000003	0.9978922124888642
30.3	0.997891319905902
30.400000000000002	0.9978904352235538
30.5	0.997889558389866
30.6	0.9978886893534564
30.700000000000003	0.9978878280635048
30.8	0.9978869744697458
30.900000000000002	0.9978861285224585
31.0	0.9978852901724596
31.1	0.9978844593710958
31.200000000000003	0.997883636070235
31.3	0.9978828202222583
31.400000000000002	0.9978820117800539
31.5	0.9978812106970091
31.6	0.9978804169412274
31.700000000000003	0.9978796304551213
31.8	0.9978788511913108
31.900000000000002	0.9978780791049574
32.0	0.9978773141516833
32.1	0.9978765562875616
32.2	0.9978758054691133
32.3	0.9978750616532988
32.400000000000006	0.997874324797512
32.5	0.9978735948595754
32.6	0.99787287179773
32.7	0.997872155570635
32.8	0.9978714461373573
32.900000000000006	0.997870743457367
33.0	0.9978700474905333
33.1	0.9978693581971164
33.2	0.9978686755377638
33.300000000000004	0.9978679994735042
33.4	0.9978673299657422
33.5	0.9978666669762531
33.6	0.9978660104671777
33.7	0.9978653604010175
33.800000000000004	0.9978647167406294
33.9	0.9978640794492214
34.0	0.9978634484903471
34.1	0.9978628238279015
34.2	0.9978622054261157
34.300000000000004	0.9978615932110837
34.4	0.9978609871707754
34.5	0.9978603872854902
34.6	0.9978597935211698
34.7	0.9978592058440828
34.800000000000004	0.9978586242208165
34.9	0.9978580486182762
35.0	0.99785747900368
35.1	0.9978569153445545
35.2	0.9978563576087316
35.300000000000004	0.9978558057643445
35.4	0.9978552597798241
35.5	0.9978547196238955
35.6	0.9978541852655731
35.7	0.9978536566741601
35.800000000000004	0.997853133819241
35.9	0.9978526166706814
36.0	0.9978521051986242
36.1	0.9978515993734837
36.2	0.997851099165946
36.300000000000004	0.9978506045469631
36.4	0.9978501154877512
36.5	0.9978496319597867
36.6	0.9978491539348043
36.7	0.9978486813847924
36.800000000000004	0.9978482142819912
36.9	0.9978477525988905
37.0	0.9978472963082248
37.1	0.9978468453829717
37.2	0.9978463998195838
37.300000000000004	0.9978459596433397
37.4	0.9978455247503445
37.5	0.997845095113503
37.6	0.9978446707059276
37.7	0.997844251500934
37.800000000000004	0.9978438374720394
37.9	0.9978434285929592
38.0	0.9978430248376053
38.1	0.997842626180082
38.2	0.9978422325946857
38.300000000000004	0.9978418440558998
38.4	0.9978414605383944
38.5	0.9978410820170227
38.6	0.9978407084668185
38.7	0.997840339862995
38.800000000000004	0.9978399761809409
38.9	0.9978396173962196
39.0	0.9978392634845658
39.1	0.9978389144218842
39.2	0.9978385701842465
39.300000000000004	0.9978382307478891
39.400000000000006	0.9978378960147082
39.5	0.9978375659948623
39.6	0.9978372407009323
39.7	0.9978369201104603
39.800000000000004	0.9978366042011596
39.900000000000006	0.997836292950912
40.0	0.9978359863377666
40.1	0.9978356843399373
40.2	0.9978353869358015
40.300000000000004	0.9978350941038981
40.400000000000006	0.9978348058229259
40.5	0.9978345220717415
40.6	0.9978342428293583
40.7	0.9978339680749435
40.800000000000004	0.9978336977878188
40.900000000000006	0.997833431947456
41.0	0.9978331705334773
41.1	0.9978329135256533
41.2	0.9978326609039007
41.300000000000004	0.9978324126482815
41.400000000000006	0.9978321687390022
41.5	0.99783192915641
41.6	0.9978316938809937
41.7	0.9978314628933811
41.800000000000004	0.9978312361743374
41.900000000000006	0.9978310137047648
42.0	0.9978307954656996
42.1	0.9978305814383125
42.2	0.9978303716039055
42.300000000000004	0.9978301659439123
42.400000000000006	0.997829964439896
42.5	0.9978297670735473
42.6	0.9978295738266844
42.7	0.9978293846812514
42.800000000000004	0.9978291996193162
42.900000000000006	0.9978290186230697
43.0	0.997828841674826
43.1	0.9978286687570188
43.2	0.9978284998522018
43.300000000000004	0.9978283349430473
43.400000000000006	0.9978281740123444
43.5	0.9978280170429988
43.6	0.9978278640174139
43.7	0.9978277149189677
43.800000000000004	0.9978275697312786
43.900000000000006	0.997827428437708
44.0	0.9978272910217304
44.1	0.9978271574669273
44.2	0.9978270277569908
44.300000000000004	0.9978269018757192
44.400000000000006	0.9978267798070187
44.5	0.9978266615348995
44.6	0.997826547043478
44.7	0.9978264363169728
44.800000000000004	0.9978263293397065
44.900000000000006	0.9978262260961016
45.0	0.9978261265706835
45.1	0.9978260307480754
45.2	0.9978259386130008
45.300000000000004	0.9978258501502811
45.400000000000006	0.9978257653448337
45.5	0.9978256841816735
45.6	0.9978256066459102
45.7	0.997825532722748
45.800000000000004	0.9978254623974848
45.900000000000006	0.9978253956555111
46.0	0.9978253324823102
46.1	0.9978252728634556
46.2	0.997825216784612
46.300000000000004	0.9978251642315331
46.400000000000006	0.9978251151900613
46.5	0.9978250696461276
46.6	0.9978250275857503
46.7	0.9978249889950334
46.800000000000004	0.9978249538601667
46.900000000000006	0.9978249221674264
47.0	0.9978248939031712
47.1	0.9978248690538443
47.2	0.9978248476059715
47.300000000000004	0.9978248295461607
47.400000000000006	0.9978248148611016
47.5	0.9978248035375645
47.6	0.9978247955623989
47.7	0.9978247909225353
47.800000000000004	0.997824789604981
47.900000000000006	0.9978247915968241
48.0	0.9978247968852272
48.1	0.9978248054574316
48.2	0.997824817300753
48.300000000000004	0.9978248324025855
48.400000000000006	0.9978248507503952
48.5	0.9978248723317242
48.6	0.9978248971341876
48.7	0.9978249251454742
48.800000000000004	0.9978249563533444
48.900000000000006	0.9978249907456311
49.0	0.9978250283102393
49.1	0.9978250690351435
49.2	0.9978251129083889
49.300000000000004	0.9978251599180905
49.400000000000006	0.9978252100524324
49.5	0.9978252632996677
49.6	0.9978253196481165
49.7	0.9978253790861672
49.800000000000004	0.9978254416022748
49.900000000000006	0.9978255071849619
50.0	0.997825575822815
50.1	0.997825647504488
50.2	0.9978257222186987
50.300000000000004	0.9978257999542294
50.400000000000006	0.997825880699927
50.5	0.997825964444701
50.6	0.9978260511775247
50.7	0.9978261408874332
50.800000000000004	0.9978262335635244
50.900000000000006	0.9978263291949573
51.0	0.9978264277709522
51.1	0.99782652928079
51.2	0.997826633713812
51.300000000000004	0.9978267410594187
51.400000000000006	0.9978268513070712
51.5	0.997826964446288
51.6	0.9978270804666476
51.7	0.9978271993577851
51.800000000000004	0.9978273211093944
51.900000000000006	0.9978274457112258
52.0	0.9978275731530873
52.1	0.9978277033291736
52.2	0.9978278363137035
52.300000000000004	0.9978279721001931
52.400000000000006	0.997828110678434
52.5	0.997828252038269
52.6	0.9978283961695932
52.7	0.9978285430623538
52.800000000000004	0.997828692706548
52.900000000000006	0.9978288450922248
53.0	0.9978290002094817
53.1	0.9978291580484681
53.2	0.9978293185993822
53.300000000000004	0.997829481852471
53.400000000000006	0.9978296477980313
53.5	0.9978298164264073
53.6	0.9978299877279921
53.7	0.9978301616932267
53.800000000000004	0.997830338312599
53.900000000000006	0.9978305175766444
54.0	0.9978306994759449
54.1	0.9978308840011293
54.2	0.9978310711428722
54.300000000000004	0.9978312608918938
54.400000000000006	0.9978314532389604
54.5	0.9978316481748831
54.6	0.9978318456905177
54.7	0.9978320457767652
54.800000000000004	0.9978322484245696
54.900000000000006	0.99783245362492
55.0	0.9978326613688485
55.1	0.9978328716474313
55.2	0.9978330844517861
55.300000000000004	0.997833299773075
55.400000000000006	0.997833517602501
55.5	0.9978337379313108
55.6	0.9978339607507922
55.7	0.997834186052274
55.800000000000004	0.9978344138271273
55.900000000000006	0.9978346440667638
56.0	0.9978348767626358
56.1	0.9978351119062366
56.2	0.9978353494890992
56.300000000000004	0.9978355895027963
56.400000000000006	0.9978358319389413
56.5	0.9978360767891863
56.6	0.9978363240452227
56.7	0.9978365736987808
56.800000000000004	0.9978368257416297
56.900000000000006	0.9978370801655766
57.0	0.997837336962467
57.1	0.9978375961241849
57.2	0.9978378576426519
57.300000000000004	0.997838121509825
57.400000000000006	0.9978383877177016
57.5	0.9978386562583139
57.6	0.9978389271237312
57.7	0.9978392003060605
57.800000000000004	0.9978394757974429
57.900000000000006	0.9978397535900577
58.0	0.9978400336761185
58.1	0.9978403160478756
58.2	0.9978406006976139
58.300000000000004	0.9978408876176538
58.400000000000006	0.9978411768003504
58.5	0.9978414682380943
58.6	0.9978417619233093
58.7	0.9978420578484547
58.800000000000004	0.997842356006024
58.900000000000006	0.9978426563885433
59.0	0.9978429589885733
59.1	0.9978432637987086
59.2	0.9978435708115757
59.300000000000004	0.9978438800198359
59.400000000000006	0.9978441914161823
59.5	0.9978445049933409
59.6	0.9978448207440701
59.7	0.9978451386611616
59.800000000000004	0.9978454587374377
59.900000000000006	0.9978457809657537
60.0	0.9978461053389964
60.1	0.997846431850084
60.2	0.9978467604919661
60.300000000000004	0.9978470912576246
60.400000000000006	0.9978474241400707
60.5	0.9978477591323472
60.6	0.9978480962275281
60.7	0.9978484354187174
60.800000000000004	0.997848776699049
60.900000000000006	0.9978491200616882
61.0	0.9978494654998297
61.1	0.9978498130066971
61.2	0.9978501625755453
61.300000000000004	0.9978505141996573
61.400000000000006	0.9978508678723468
61.5	0.9978512235869547
61.6	0.9978515813368533
61.7	0.9978519411154423
61.800000000000004	0.9978523029161498
61.900000000000006	0.9978526667324338
62.0	0.99785303255778
62.1	0.9978534003857021
62.2	0.9978537702097418
62.300000000000004	0.9978541420234691
62.400000000000006	0.9978545158204822
62.5	0.9978548915944058
