1. 0.
1.1 0.
1.2 0.
1.3 0.
1.4 0.
1.5 0.
1.6 0.
1.7000000000000002 0.
1.8 0.
1.9 0.
2. 0.
2.1 0.
2.2 0.
2.3 0.
2.4000000000000004 0.
2.5 0.
2.6 0.
2.7 0.
2.8 0.
2.9000000000000004 0.
3. 0.
3.1 0.
3.2 0.
3.3000000000000003 0.
3.4000000000000004 0.
3.5 0.
3.6 0.005448666868797366
3.7 0.02621701986604533
3.8000000000000003 0.04936501083270076
3.9000000000000004 0.07175245649241468
4. 0.09251460688107913
4.1 0.11148241539443683
4.2 0.12872981507784426
4.300000000000001 0.14441061442389266
4.4 0.15869529511306124
4.5 0.17174660598741978
4.6 0.18371109246548645
4.7 0.1947172729949138
4.800000000000001 0.20487650303184768
4.9 0.21414492322520806
5. 0.22287835483344978
5.1000000000000005 0.2310181514297122
5.2 0.23862588358812722
5.3 0.24575492782293612
5.4 0.25245172796100634
5.5 0.25875685166967793
5.6000000000000005 0.26470587229330905
5.7 0.27033010444814853
5.800000000000001 0.275657218190834
5.9 0.28071175281328187
6. 0.28551554804388307
6.1000000000000005 0.2900881070234499
6.2 0.29444690285227765
6.300000000000001 0.2986076385464956
6.4 0.30258446822541335
6.5 0.30639018598770984
6.6000000000000005 0.310036387826484
6.7 0.31353361085966985
6.800000000000001 0.3168914535274238
6.9 0.32011867975218206
7. 0.3232233093918924
7.1000000000000005 0.3262126971091039
7.2 0.32909360128782345
7.300000000000001 0.3318722446691468
7.4 0.3345543674410832
7.5 0.33714527418423046
7.6000000000000005 0.3396498753989164
7.7 0.34207272432417835
7.800000000000001 0.3444180496939753
7.9 0.3466897848797153
8. 0.34889159400295683
8.100000000000001 0.3510268953205611
8.2 0.3530988822200369
8.3 0.35511054214546706
8.4 0.35706467370612205
8.5 0.3589639021936353
8.600000000000001 0.3608106937617982
8.7 0.3626073683935278
8.8 0.36435611194716877
8.9 0.36605898748171656
9. 0.36771794618200015
9.1 0.3693348383664135
9.200000000000001 0.3709114254832017
9.3 0.37244939492177215
9.4 0.3739503830175689
9.5 0.37541602474161434
9.6 0.3768481572913868
9.700000000000001 0.37816985151922344
9.8 0.37942172600585156
9.9 0.380632143852998
10. 0.3818060949804214
10.1 0.38294687109253295
10.200000000000001 0.3840569754862101
10.3 0.3851384454455009
10.4 0.38619300542839397
10.5 0.3872221526373032
10.600000000000001 0.38822721012566663
10.700000000000001 0.3892093623031641
10.8 0.3901696800364161
10.9 0.39110913913240714
11. 0.3920286344242415
11.100000000000001 0.3929289908766922
11.200000000000001 0.3938109724264144
11.3 0.3946752892134214
11.4 0.39552260357596275
11.5 0.39635353508622195
11.600000000000001 0.3971686648284758
11.700000000000001 0.3979685390689333
11.8 0.39875367242844734
11.9 0.3995245506654907
12. 0.40028163309131315
12.100000000000001 0.401025354720826
12.200000000000001 0.40175612817723894
12.3 0.40247434539083493
12.4 0.40318037912075544
12.5 0.403874584323658
12.600000000000001 0.40455729938916474
12.700000000000001 0.4052288472580157
12.8 0.40588953641844766
12.9 0.4065396618987716
13. 0.4071795060455639
13.100000000000001 0.40780933932097396
13.200000000000001 0.408429421014034
13.3 0.4090399998949821
13.4 0.4096413148184753
13.5 0.41023359528071923
13.600000000000001 0.41081706193499073
13.700000000000001 0.4113919270694794
13.8 0.41195839505432347
13.9 0.4125166627757361
14. 0.4130669199334641
14.100000000000001 0.41360934949261224
14.200000000000001 0.41414412798648237
14.3 0.41467142582940547
14.4 0.41519140760963635
14.5 0.4157042323638904
14.600000000000001 0.4162100538349524
14.700000000000001 0.4167090207136763
14.8 0.4172012768665695
14.9 0.4176869615500073
15. 0.4181662096057067
15.100000000000001 0.4186391516470364
15.200000000000001 0.4191059142904834
15.3 0.41956662026075103
15.4 0.4200213885746587
15.5 0.420470334693056
15.600000000000001 0.42091357066473195
15.700000000000001 0.42135120526280695
15.8 0.421783344114101
15.9 0.42221008982190833
16. 0.42263154208264975
16.1 0.42304779779672447
16.200000000000003 0.4234589511739447
16.3 0.42386509383966553
16.4 0.4242663149256803
16.5 0.4246627011398057
16.6 0.4250543368858496
16.700000000000003 0.42544130433360117
16.8 0.4258236834978636
16.9 0.42620155231392093
17. 0.42657498670965904
17.1 0.4269440606744761
17.2 0.42730884632523386
17.3 0.42766941396931885
17.400000000000002 0.4280258321650395
17.5 0.42837816777945475
17.6 0.42872648604379937
17.7 0.4290708506030284
17.8 0.42941132356896383
17.900000000000002 0.4297479655843201
18. 0.4300808358472718
18.1 0.4304099921650185
18.2 0.4307354909970395
18.3 0.43105738749666606
18.400000000000002 0.43137573555101716
18.5 0.4316905878194197
18.6 0.4320019957703586
18.7 0.4323100097170321
18.8 0.432614678851568
18.900000000000002 0.4329160512779844
19. 0.43321417404392304
19.1 0.4335090931712271
19.2 0.4338008536858844
19.3 0.4340894996511486
19.400000000000002 0.43437507417787613
19.5 0.4346576194689341
19.6 0.4349371768386197
19.7 0.43521378673727096
19.8 0.43548748877503785
19.900000000000002 0.4357583217448254
20. 0.4360263236444732
20.1 0.436291531698168
20.200000000000003 0.43655398237714965
20.3 0.43681371141972736
20.400000000000002 0.43707075385062355
20.5 0.4373251439997027
20.6 0.43757691552006156
20.700000000000003 0.437826101405569
20.8 0.43807273400780744
20.900000000000002 0.43831684505080426
21. 0.4385584656505556
21.1 0.4387976263297758
21.200000000000003 0.43903435703005256
21.3 0.4392686871277592
21.400000000000002 0.4395006454480769
21.5 0.4397302602785428
21.6 0.4399575593822319
21.700000000000003 0.4401825700105072
21.8 0.44040531891541107
21.900000000000002 0.440625832361645
22. 0.4408441361382584
22.1 0.44106025556992706
22.200000000000003 0.4412742155279333
22.3 0.44148604044083245
22.400000000000002 0.44169575430477703
22.5 0.4419033806935788
22.6 0.4421089427684595
22.700000000000003 0.4423124632904794
22.8 0.44251396462307174
22.900000000000002 0.4427134687432537
23. 0.4429109972539766
23.1 0.44310657139039644
23.200000000000003 0.4433002120281182
23.3 0.4434919396911823
23.400000000000002 0.44368177455984753
23.5 0.44386973647815003
23.6 0.4440558449612658
23.700000000000003 0.4442401192026863
23.8 0.4444225780811725
23.900000000000002 0.4446032401675461
24. 0.4447821237312995
24.1 0.4449592467470217
24.200000000000003 0.44513462690064887
24.3 0.44530828159558844
24.400000000000002 0.44548022795863157
24.5 0.4456504828457578
24.6 0.4458190628469818
24.700000000000003 0.44598598428307945
24.8 0.4461512632420317
24.900000000000002 0.4463149155516643
25. 0.44647695679577193
25.1 0.4466374023190779
25.200000000000003 0.4467962672320677
25.3 0.446953566415699
25.400000000000002 0.44710931452600366
25.5 0.44726352599857905
25.6 0.44741621505294704
25.700000000000003 0.44756739569683995
25.8 0.4477170817303526
25.900000000000002 0.4478652867500134
26. 0.44801202415275115
26.1 0.4481573071397549
26.200000000000003 0.44830114872027604
26.3 0.44844356171529687
26.400000000000002 0.4485845587611476
26.5 0.4487241523130144
26.6 0.4488623546483806
26.700000000000003 0.4489991778703873
26.8 0.4491346339218847
26.900000000000002 0.44926873455773625
27. 0.4494014913757903
27.1 0.4495329158136928
27.200000000000003 0.44966301915038126
27.3 0.4497918125090342
27.400000000000002 0.44991930685990056
27.5 0.4500455130231058
27.6 0.45017044167138015
27.700000000000003 0.4502941033327116
27.8 0.4504165083929732
27.900000000000002 0.45053766709845244
28. 0.450657589558357
28.1 0.4507762857472544
28.200000000000003 0.45089376550745924
28.3 0.4510100385513535
28.400000000000002 0.4511251144636912
28.5 0.4512390027038139
28.6 0.45135171260785284
28.700000000000003 0.4514632533908533
28.8 0.45157363414888424
28.900000000000002 0.4516828638610797
29. 0.4517909513916399
29.1 0.45189790548477926
29.200000000000003 0.45200373478663364
29.3 0.45210844782941123
29.400000000000002 0.45221205303692286
29.5 0.45231455872747717
29.6 0.45241597311564313
29.700000000000003 0.4525163043139833
29.8 0.45261556033474737
29.900000000000002 0.45271374909153794
30. 0.45281087840094303
30.1 0.4529069559841147
30.200000000000003 0.4530019894683583
30.3 0.4530959863886325
30.400000000000002 0.45318895418908084
30.5 0.45328090022448225
30.6 0.4533718317617024
30.700000000000003 0.4534617559811024
30.8 0.4535506799779287
30.900000000000002 0.45363861076366824
31. 0.45372555526738173
31.1 0.45381152033700634
31.200000000000003 0.45389651274063875
31.3 0.4539805391677957
31.400000000000002 0.4540636062306339
31.5 0.4541457204651705
31.6 0.4542268883362223
31.700000000000003 0.4543071162278499
31.8 0.4543864104540459
31.900000000000002 0.4544647772578328
32. 0.45454222281177153
32.1 0.4546187532190652
32.2 0.45469437451460376
32.3 0.45476909266599974
32.400000000000006 0.45484291357461054
32.5 0.45491584307652744
32.6 0.4549878869435727
32.7 0.45505905088424264
32.8 0.45512934054466475
32.900000000000006 0.4551987615095197
33. 0.4552673193029505
33.1 0.4553350193894571
33.2 0.4554018671747776
33.300000000000004 0.4554678680067421
33.4 0.4555330271761249
33.5 0.45559734991747153
33.6 0.4556608414099214
33.7 0.45572350677799306
33.800000000000004 0.4557853510923998
33.9 0.4558463793707893
34. 0.45590659657853
34.1 0.4559660076294398
34.2 0.4560246173865323
34.300000000000004 0.456082430653405
34.4 0.4561394521992563
34.5 0.4561956867425989
34.6 0.45625113895038677
34.7 0.4563058134422279
34.800000000000004 0.45635971479108145
34.9 0.4564128475238677
35. 0.45646521612213453
35.1 0.45651682502267177
35.2 0.4565676786181276
35.300000000000004 0.45661778125762137
35.4 0.4566671372473272
35.5 0.4567157508510741
35.6 0.456763626290912
35.7 0.4568107677476792
35.800000000000004 0.4568571793615593
35.9 0.45690286523263557
36. 0.45694782942141887
36.1 0.4569920759493844
36.2 0.45703560879949007
36.300000000000004 0.4570784319166843
36.4 0.4571205492084268
36.5 0.4571619645451558
36.6 0.45720268176080614
36.7 0.45724270465326866
36.800000000000004 0.4572820369848693
36.9 0.45732068248283114
37. 0.457358644839735
37.1 0.45739592771396725
37.2 0.45743253473542844
37.300000000000004 0.457468469507127
37.4 0.4575037355698794
37.5 0.45753833644942266
37.6 0.45757227563943637
37.7 0.4576055566019592
37.800000000000004 0.45763818276777596
37.9 0.45767015753682805
38. 0.45770148427859986
38.1 0.4577321663324929
38.2 0.45776220700821263
38.300000000000004 0.4577916095861382
38.4 0.45782037731768627
38.5 0.4578485134256812
38.6 0.45787602110468956
38.7 0.4579029035213878
38.800000000000004 0.45792916381489757
38.9 0.45795480509713377
39. 0.4579798304531255
39.1 0.45800424294134917
39.2 0.45802804559406113
39.300000000000004 0.45805124141760484
39.400000000000006 0.4580738333764145
39.5 0.45809582443336927
39.6 0.4581172175268159
39.7 0.45813801556270334
39.800000000000004 0.4581582214226049
39.900000000000006 0.4581778379639985
40. 0.4581968680205607
40.1 0.4582153144024468
40.2 0.45823317989657364
40.300000000000004 0.45825046726688373
40.400000000000006 0.4582671792546361
40.5 0.458283318578644
40.6 0.4582988879355652
40.7 0.45831389000015027
40.800000000000004 0.4583283274254911
40.900000000000006 0.45834220284327865
41. 0.4583555188640605
41.1 0.4583682780774643
41.2 0.4583804830524595
41.300000000000004 0.45839213633757975
41.400000000000006 0.4584032404611646
41.5 0.45841379793159115
41.6 0.45842381123749804
41.7 0.45843328284800783
41.800000000000004 0.4584422152129498
41.900000000000006 0.4584506107630964
42. 0.45845847191033695
42.1 0.4584658010479321
42.2 0.45847260055069694
42.300000000000004 0.458478872775219
42.400000000000006 0.4584846200600561
42.5 0.4584898447259419
42.6 0.4584945490759754
42.7 0.458498735395824
42.800000000000004 0.4585024059539162
42.900000000000006 0.45850556300161893
43. 0.4585082087734461
43.1 0.4585103454872174
43.2 0.458511975344271
43.300000000000004 0.45851310052960664
43.400000000000006 0.4585137232121015
43.5 0.45851384554465013
43.6 0.4585134696642335
43.7 0.45851259769238606
43.800000000000004 0.45851123173521446
43.900000000000006 0.4585093738834519
44. 0.45850702621270917
44.1 0.4585041907836365
44.2 0.45850086964206344
44.300000000000004 0.45849706481918356
44.400000000000006 0.45849277833168783
44.5 0.4584880121819295
44.6 0.45848276835806817
44.7 0.45847704883422297
44.800000000000004 0.45847085557061645
44.900000000000006 0.45846419051372905
45. 0.45845705559642635
45.1 0.45844945273810944
45.2 0.4584413838448602
45.300000000000004 0.4584328508095638
45.400000000000006 0.4584238555120627
45.5 0.4584143998192724
45.6 0.4584044855853337
45.7 0.45839411465172414
45.800000000000004 0.45838328884740265
45.900000000000006 0.45837200998892197
46. 0.45836027988057243
46.1 0.45834810031449447
46.2 0.45833547307080086
46.300000000000004 0.4583223999176942
46.400000000000006 0.4583088826116117
46.5 0.4582949228973108
46.6 0.45828052250800133
46.7 0.45826568316546173
46.800000000000004 0.4582504065801529
46.900000000000006 0.4582346944513186
47. 0.4582185484671174
47.1 0.45820197030470977
47.2 0.45818496163038674
47.300000000000004 0.4581675240996614
47.400000000000006 0.4581496593573818
47.5 0.45813136903783697
47.6 0.4581126547648548
47.7 0.45809351815189786
47.800000000000004 0.458073960802189
47.900000000000006 0.4580539843087819
48. 0.4580335902546674
48.1 0.45801278021288794
48.2 0.45799155574660905
48.300000000000004 0.45796991840922396
48.400000000000006 0.45794786974444907
48.5 0.45792541128641673
48.6 0.45790254455976875
48.7 0.457879271079727
48.800000000000004 0.4578555923522157
48.900000000000006 0.45783150987391924
49. 0.457807025132384
49.1 0.4577821396061017
49.2 0.4577568547646017
49.300000000000004 0.4577311720685165
49.400000000000006 0.45770509296968126
49.5 0.4576786189112086
49.6 0.45765175132757435
49.7 0.4576244916446837
49.800000000000004 0.457596841279982
49.900000000000006 0.4575688016424918
50. 0.45754037413292054
50.1 0.45751156014372185
50.2 0.45748236105918605
50.300000000000004 0.45745277825549113
50.400000000000006 0.45742281310080124
50.5 0.45739246695532426
50.6 0.45736174117138595
50.7 0.4573306370935098
50.800000000000004 0.4572991560584829
50.900000000000006 0.45726729939540783
51. 0.45723506842580647
51.1 0.4572024644636642
51.2 0.4571694888154979
51.300000000000004 0.4571361427804328
51.400000000000006 0.45710242765025816
51.5 0.45706834470950186
51.6 0.45703389523548044
51.7 0.4569990804983864
51.800000000000004 0.4569639017613232
51.900000000000006 0.4569283602803889
52. 0.4568924573047283
52.1 0.45685619405691463
52.2 0.4568195717897087
52.300000000000004 0.4567825917324951
52.400000000000006 0.4567452551071624
52.5 0.45670756312894256
52.6 0.45666951700648223
52.7 0.45663111794186495
52.800000000000004 0.4565923671307186
52.900000000000006 0.45655326576222455
53. 0.4565138150191897
53.1 0.45647401607811894
53.2 0.456433870109226
53.300000000000004 0.4563933782765421
53.400000000000006 0.4563525417379194
53.5 0.45631136164511793
53.6 0.456269839143826
53.7 0.45622797537374354
53.800000000000004 0.45618577146860784
53.900000000000006 0.45614322855625594
54. 0.4561003477586733
54.1 0.45605713019203076
54.2 0.4560135769667585
54.300000000000004 0.4559696891875619
54.400000000000006 0.4559254679534928
54.5 0.4558809143579889
54.6 0.4558360294889117
54.7 0.45579081442861596
54.800000000000004 0.4557452702539576
54.900000000000006 0.45569939803638027
55. 0.45565319884192673
55.1 0.4556066737313008
55.2 0.4555598237599119
55.300000000000004 0.4555126499778965
55.400000000000006 0.45546515343019767
55.5 0.4554173351565658
55.6 0.4553691961916259
55.7 0.4553207375649313
55.800000000000004 0.45527196030095485
55.900000000000006 0.45522286541918566
56. 0.4551734539341417
56.1 0.4551237268554013
56.2 0.4550736851876642
56.300000000000004 0.4550233299307767
56.400000000000006 0.4549726620797643
56.5 0.45492168262489413
56.6 0.4548703925516871
56.7 0.45481879284096494
56.800000000000004 0.4547668844688939
56.900000000000006 0.45471466840700053
57. 0.45466214562223983
57.1 0.45460931707699515
57.2 0.45455618372914375
57.300000000000004 0.45450274653207784
57.400000000000006 0.4544490064347317
57.5 0.4543949643816414
57.6 0.4543406213129475
57.7 0.45428597816444527
57.800000000000004 0.45423103586762803
57.900000000000006 0.45417579534969926
58. 0.4541202575336241
58.1 0.4540644233381289
58.2 0.4540082936777879
58.300000000000004 0.4539518694630016
58.400000000000006 0.45389515160006083
58.5 0.4538381409911591
58.6 0.45378083853444084
58.7 0.45372324512402057
58.800000000000004 0.453665361650012
58.900000000000006 0.45360718899855956
59. 0.4535487280518721
59.1 0.45348997968825105
59.2 0.45343094478212415
59.300000000000004 0.45337162420404575
59.400000000000006 0.45331201882077793
59.5 0.453252129495258
59.6 0.45319195708668497
59.7 0.4531315024504964
59.800000000000004 0.4530707664384405
59.900000000000006 0.4530097498985541
60. 0.45294845367524456
60.1 0.45288687860926213
60.2 0.45282502553778103
60.300000000000004 0.4527628952943729
60.400000000000006 0.45270048870906454
60.5 0.4526378066083641
60.6 0.45257484981526913
60.7 0.4525116191492985
60.800000000000004 0.45244811542653696
60.900000000000006 0.45238433945961626
61. 0.4523202920577849
61.1 0.4522559740269134
61.2 0.45219138616950383
61.300000000000004 0.45212652928473895
61.400000000000006 0.45206140416849855
61.5 0.45199601161337394
61.6 0.4519303524086756
61.7 0.45186442734052323
61.800000000000004 0.45179823719176937
61.900000000000006 0.4517317827421132
62. 0.4516650647680641
62.1 0.45159808404298574
62.2 0.451530841337119
62.300000000000004 0.4514633374176034
62.400000000000006 0.451395573048486
62.5 0.45132754899075445