1.	0.0009663377287739489
1.1	0.0009793902813660792
1.2	0.0010174017038782153
1.3	0.0010733224831303637
1.4	0.0011450902037584247
1.5	0.0012588817953612056
1.6	0.001371478957946741
1.7000000000000002	0.001499877439314035
1.8	0.0016466813364526508
1.9	0.0018155581528564273
2.	0.002011645382191857
2.1	0.002242254233934905
2.2	0.0025181158504938806
2.3	0.002855721914849696
2.4000000000000004	0.0032821327577587395
2.5	0.0038462283714457398
2.6	0.004650916796909045
2.7	0.005986301357701089
2.8	0.007849635707032775
2.9000000000000004	0.006831560230699739
3.	0.006366313806141964
3.1	0.0060136002399662075
3.2	0.005722571289429268
3.3000000000000003	0.005472153766591271
3.4000000000000004	0.005250975554108712
3.5	0.005051569992555192
3.6	0.00018216227629301834
3.7	0.00010260185069453608
3.8000000000000003	0.00007844030565102549
3.9000000000000004	0.00006550896723156116
4.	0.00005711482670906933
4.1	0.00005108945622631948
4.2	0.00004648774052943747
4.300000000000001	0.00004282243195810438
4.4	0.000039813179359813304
4.5	0.00003728560954992405
4.6	0.00003512476032798964
4.7	0.00003325133223620512
4.800000000000001	0.000031608615865397064
4.9	0.000030486290493804097
5.	0.000029212632517901012
5.1000000000000005	0.000028069431193785815
5.2	0.00002703811094940722
5.3	0.00002610392786506657
5.4	0.000025255040281901412
5.5	0.000024481845573560872
5.6000000000000005	0.000023776497949909077
5.7	0.000023132552231788247
5.800000000000001	0.00002254469710378746
5.9	0.000022008553155534063
6.	0.00002152051871465192
6.1000000000000005	0.000021077651553702892
6.2	0.000020677578024289818
6.300000000000001	0.00002031842358499945
6.4	0.00001999876037222386
6.5	0.000019717568697622744
6.6000000000000005	0.000019474210272188262
6.7	0.000019268411651380798
6.800000000000001	0.000019100256966312483
6.9	0.00001897018948135905
7.	0.00001887902194590635
7.1000000000000005	0.000018827956146551838
7.2	0.000018818612515649876
7.300000000000001	0.00001885307119116658
7.4	0.000018933926530129146
7.5	0.000019064357933469745
7.6000000000000005	0.00001924822089648025
7.7	0.000019490163675134662
7.800000000000001	0.000019795777009772637
7.9	0.00002017178726033891
8.	0.000020626307556289625
8.100000000000001	0.000021169167847738543
8.2	0.000021812354301566632
8.3	0.000022570603351327656
8.4	0.000023462219476728112
8.5	0.000024510224988599726
8.600000000000001	0.000025744017073858606
8.7	0.00002720182656083577
8.8	0.000028934495500986515
8.9	0.00003101153093621422
9.	0.00003353132584520171
9.1	0.00003663959811314738
9.200000000000001	0.00004056568923050367
9.3	0.000045703214225751355
9.4	0.0000528249495069685
9.5	0.00006386781000573508
9.6	0.00008868870703671024
9.700000000000001	0.00009399940011242086
9.8	0.00008678122543553581
9.9	0.00008197659763483815
10.	0.00007838054969587017
10.1	0.00007555607983672182
10.200000000000001	0.00007328254362561349
10.3	0.00007142889700989568
10.4	0.00006990922803952705
10.5	0.00006866332144113119
10.600000000000001	0.00006764688791950377
10.700000000000001	0.0000668261447791558
10.8	0.00006617458141012273
10.9	0.00006567091564264062
11.	0.00006529774226647696
11.100000000000001	0.00006504060525344335
11.200000000000001	0.00006488734064957644
11.3	0.00006482759870865346
11.4	0.00006485248839994574
11.5	0.00006495430769878875
11.600000000000001	0.00006512633540794775
11.700000000000001	0.00006536266801514858
11.8	0.00006565809010931252
11.9	0.00006600797020808764
12.	0.00006640817609880448
12.100000000000001	0.00006685500536731733
12.200000000000001	0.0000673451278813309
12.3	0.0000678755377864402
12.4	0.00006844351314565627
12.5	0.00006904658177565681
12.600000000000001	0.00006968249214833489
12.700000000000001	0.0000703491884642604
12.8	0.00007104478918434126
12.9	0.00007176756846058979
13.	0.00007251593997796975
13.100000000000001	0.00007328844285644423
13.200000000000001	0.00007408372929104391
13.3	0.00007490055367730536
13.4	0.00007573776301015278
13.5	0.00007659428837928576
13.600000000000001	0.00007746913741258728
13.700000000000001	0.00007836138754233872
13.8	0.00007927017998859422
13.9	0.00008019471437138762
14.	0.00008113424385844637
14.100000000000001	0.00008208807081907999
14.200000000000001	0.00008305554288853179
14.3	0.00008403604941347688
14.4	0.0000850290182320462
14.5	0.0000860339127513225
14.600000000000001	0.00008705022928999163
14.700000000000001	0.00008807749465788477
14.8	0.00008911526394762502
14.9	0.00009016311851657937
15.	0.00009122066413899427
15.100000000000001	0.0000922875293125225
15.200000000000001	0.00009336336371189279
15.3	0.00009444783675165959
15.4	0.00009554063627528831
15.5	0.00009664146734420588
15.600000000000001	0.0000977500511206526
15.700000000000001	0.00009886612383587576
15.8	0.00009998943583608012
15.9	0.00010111975069932186
16.	0.00010225684441722023
16.1	0.00010340050463596479
16.200000000000003	0.00010455052995163567
16.3	0.00010570672925626035
16.4	0.00010686892112796582
16.5	0.00010803693326038323
16.6	0.00010921060193955426
16.700000000000003	0.00011038977154911663
16.8	0.00011157429411039098
16.9	0.00011276402885280343
17.	0.00011395884181233708
17.1	0.00011515860545590734
17.2	0.00011636319832973309
17.3	0.00011757250472994351
17.400000000000002	0.00011878641439380254
17.5	0.00012000482221006978
17.6	0.00012122762794713838
17.7	0.0001224547359970535
17.8	0.00012368605513592238
17.900000000000002	0.00012492149830101976
18.	0.00012616098237445682
18.1	0.00012740442798482368
18.2	0.0001286517593189095
18.3	0.00012990290394425746
18.400000000000002	0.00013115779264183972
18.5	0.0001324163592481955
18.6	0.00013367854050642247
18.7	0.00013494427592545535
18.8	0.00013621350764710626
18.900000000000002	0.000137486180320379
19.	0.00013876224098260985
19.1	0.0001400416389470039
19.2	0.00014132432569627807
19.3	0.00014261025478280555
19.400000000000002	0.00014389938172969978
19.5	0.00014519166394388376
19.6	0.0001464870606290653
19.7	0.0001477855327043373
19.8	0.00014908704272693926
19.900000000000002	0.00015039155481893766
20.	0.0001516990345976026
20.1	0.00015300944910926788
20.200000000000003	0.0001543227667664798
20.3	0.00015563895728824777
20.400000000000002	0.00015695799164322827
20.5	0.00015827984199567305
20.6	0.00015960448165399773
20.700000000000003	0.00016093188502182143
20.8	0.00016226202755134753
20.900000000000002	0.00016359488569858823
21.	0.00016493043688184378
21.1	0.00016626865944124685
21.200000000000003	0.00016760953259970976
21.3	0.00016895303642658457
21.400000000000002	0.00017029915180268908
21.5	0.00017164786038693466
21.6	0.0001729991445844769
21.700000000000003	0.0001743529875163044
21.8	0.0001757093729902022
21.900000000000002	0.00017706828547300844
22.	0.00017842971006411346
22.1	0.00017979363247012866
22.200000000000003	0.00018116003898067018
22.3	0.00018252891644520783
22.400000000000002	0.00018390025225091926
22.5	0.00018527403430150568
22.6	0.00018665025099692134
22.700000000000003	0.00018802889121466326
22.8	0.00018940994428964022
22.900000000000002	0.00019079339999690577
23.	0.00019217924853548958
23.1	0.0001935674805115698
23.200000000000003	0.00019495808692284437
23.3	0.0001963510591435492
23.400000000000002	0.0001977463889100995
23.5	0.00019914406830732326
23.6	0.00020054408975526137
23.700000000000003	0.00020194644599650578
23.8	0.000203351130084055
23.900000000000002	0.00020475813536966194
24.	0.00020616745549265113
24.1	0.0002075790843691855
24.200000000000003	0.00020899301618196303
24.3	0.00021040924537032424
24.400000000000002	0.00021182776662075265
24.5	0.00021324857485774748
24.6	0.0002146716652348686
24.700000000000003	0.0002160970331241573
24.8	0.0002175246741156753
24.900000000000002	0.0002189545840017397
25.	0.00022038675877214726
25.1	0.00022182119460698594
25.200000000000003	0.00022325788786972293
25.3	0.00022469683510055658
25.400000000000002	0.00022613803301002133
25.5	0.0002275814784728392
25.6	0.00022902716852199885
25.700000000000003	0.0002304751003430638
25.8	0.00023192527126868814
25.900000000000002	0.0002333776787733463
26.	0.0002348323204682515
26.1	0.00023628919409646689
26.200000000000003	0.0002377482975282001
26.3	0.00023920962875626756
26.400000000000002	0.0002406731858917301
26.5	0.00024213896715968587
26.6	0.00024360697089521814
26.700000000000003	0.0002450771955394916
26.8	0.0002465496396386817
26.900000000000002	0.00024802430183263675
27.	0.00024950118085833705
27.1	0.00025098027554495685
27.200000000000003	0.0002524615848102584
27.3	0.00025394510765745857
27.400000000000002	0.00025543084317221164
27.5	0.000256918790519698
27.6	0.00025840894894181885
27.700000000000003	0.00025990131775448716
27.8	0.00026139589634501615
27.900000000000002	0.00026289268416960224
28.	0.0002643916807508906
28.1	0.0002658928856756341
28.200000000000003	0.00026739629859242687
28.3	0.000268901919209524
28.400000000000002	0.00027040974729273084
28.5	0.00027191978266337006
28.6	0.00027343202519631806
28.700000000000003	0.0002749464748181097
28.8	0.00027646313150510814
28.900000000000002	0.0002779819952817377
29.	0.0002795030662187781
29.1	0.0002810263444299973
29.200000000000003	0.00028255183007545946
29.3	0.00028407952335563836
29.400000000000002	0.0002856094245108402
29.5	0.00028714153382003563
29.6	0.0002886758515994764
29.700000000000003	0.0002902123782013568
29.8	0.00029175111401252325
29.900000000000002	0.0002932920594532262
30.	0.00029483521497591366
30.1	0.00029638058106406693
30.200000000000003	0.0002979281582310765
30.3	0.0002994779470191491
30.400000000000002	0.0003010299479982655
30.5	0.0003025841617651558
30.6	0.0003041405889423253
30.700000000000003	0.00030569923017709997
30.8	0.0003072600861407143
30.900000000000002	0.00030882315752742427
31.	0.0003103884450536484
31.1	0.0003119559494571431
31.200000000000003	0.0003135256714962005
31.3	0.00031509761194887696
31.400000000000002	0.0003166717716122437
31.5	0.0003182481513016654
31.6	0.0003198267518509793
31.700000000000003	0.0003214075741093144
31.8	0.00032299061894267754
31.900000000000002	0.00032457588723284016
32.	0.0003261633798765999
32.1	0.00032775309778518773
32.2	0.0003293450418837039
32.3	0.00033093921311055924
32.400000000000006	0.00033253561241694925
32.5	0.0003341342407663327
32.6	0.00033573509913393997
32.7	0.00033733818850628747
32.8	0.000338943509880712
32.900000000000006	0.0003405510642649251
33.	0.00034216085267657273
33.1	0.0003437728761428196
33.2	0.00034538713569993973
33.300000000000004	0.0003470036323929251
33.4	0.0003486223672751068
33.5	0.00035024334140778586
33.6	0.0003518665558598806
33.7	0.00035349201170758326
33.800000000000004	0.00035511971003402803
33.9	0.00035674965192897246
34.	0.000358381838488487
34.1	0.00036001627081465646
34.2	0.00036165295001529214
34.300000000000004	0.00036329187720165486
34.4	0.0003649330534934059
34.5	0.00036657648001468276
34.6	0.0003682221578935228
34.7	0.00036987008826238444
34.800000000000004	0.0003715202722579124
34.9	0.00037317271102071356
35.	0.0003748274056951385
35.1	0.0003764843574290649
35.2	0.00037814356737370103
35.300000000000004	0.0003798050366833812
35.4	0.00038146876651538273
35.5	0.00038313475802973824
35.6	0.00038480301238905747
35.7	0.00038647353075836247
35.800000000000004	0.00038814631430491756
35.9	0.00038982136419807154
36.	0.00039149868160910417
36.1	0.0003931782677110804
36.2	0.00039486012367870657
36.300000000000004	0.0003965442506881922
36.4	0.00039823064991711797
36.5	0.00039991932254430934
36.6	0.0004016102697497121
36.7	0.0004033034927142763
36.800000000000004	0.0004049989926198396
36.9	0.0004066967706490179
37.	0.0004083968279851023
37.1	0.00041009916581195415
37.2	0.00041180378531491794
37.300000000000004	0.0004135106876809322
37.4	0.00041521987409161163
37.5	0.0004169313457321235
37.6	0.00041864510378775453
37.7	0.0004203611494438266
37.800000000000004	0.00042207948388562933
37.9	0.0004238001082983339
38.	0.0004255230238669334
38.1	0.00042724823177616605
38.2	0.00042897573321045687
38.300000000000004	0.0004307055293538511
38.4	0.0004324376213899552
38.5	0.00043417201050187853
38.6	0.0004359086978721815
38.7	0.0004376476846828211
38.800000000000004	0.0004393889721151007
38.9	0.0004411325613496223
39.	0.00044287845356624344
39.1	0.0004446266499440299
39.2	0.00044637715166121454
39.300000000000004	0.00044812995989516137
39.400000000000006	0.0004498850758194687
39.5	0.00045164250061097334
39.6	0.00045340223544559417
39.7	0.00045516428149688167
39.800000000000004	0.00045692863993734384
39.900000000000006	0.0004586953119384201
40.	0.0004604642986704548
40.1	0.00046223560130266556
40.2	0.0004640092210031284
40.300000000000004	0.00046578515893874766
40.400000000000006	0.00046756341627523547
40.5	0.0004693439941770964
40.6	0.00047112689380760436
40.7	0.0004729121163287858
40.800000000000004	0.000474699662901406
40.900000000000006	0.0004764895346849522
41.	0.0004782817328376154
41.1	0.0004800762585162897
41.2	0.0004818731128765481
41.300000000000004	0.0004836722970726375
41.400000000000006	0.00048547381225746977
41.5	0.00048727765958261025
41.6	0.0004890838401982738
41.7	0.0004908923552533145
41.800000000000004	0.0004927032058952217
41.900000000000006	0.0004945163932701138
42.	0.0004963319185227346
42.1	0.0004981497827964519
42.2	0.0004999699872332513
42.300000000000004	0.000501792532973738
42.400000000000006	0.0005036174211571293
42.5	0.0005054446529212647
42.6	0.000507274229402596
42.7	0.0005091061517361927
42.800000000000004	0.0005109404210557417
42.900000000000006	0.0005127770384935555
43.	0.0005146160051805658
43.1	0.0005164573222463311
43.2	0.0005183009908190416
43.300000000000004	0.0005201470120255233
43.400000000000006	0.0005219953869912405
43.5	0.0005238461168403046
43.6	0.0005256992026954528
43.7	0.0005275546456781153
43.800000000000004	0.0005294124469083839
43.900000000000006	0.0005312726075050104
44.	0.000533135128585429
44.1	0.0005350000112657557
44.2	0.0005368672566608042
44.300000000000004	0.0005387368658840925
44.400000000000006	0.0005406088400478485
44.5	0.0005424831802630247
44.6	0.0005443598876393035
44.7	0.0005462389632851098
44.800000000000004	0.0005481204083076224
44.900000000000006	0.0005500042238127792
45.	0.0005518904109052944
45.1	0.0005537789706886653
45.2	0.0005556699042651902
45.300000000000004	0.0005575632127359681
45.400000000000006	0.0005594588972009231
45.5	0.000561356958758808
45.6	0.000563257398507225
45.7	0.000565160217542626
45.800000000000004	0.0005670654169603386
45.900000000000006	0.0005689729978545706
46.	0.0005708829613184261
46.1	0.0005727953084439182
46.2	0.000574710040321981
46.300000000000004	0.0005766271580424887
46.400000000000006	0.0005785466626942606
46.5	0.0005804685553650832
46.6	0.0005823928371417215
46.7	0.0005843195091099301
46.800000000000004	0.0005862485723544709
46.900000000000006	0.0005881800279591284
47.	0.0005901138770067199
47.1	0.0005920501205791174
47.2	0.0005939887597572503
47.300000000000004	0.0005959297956211355
47.400000000000006	0.0005978732292498805
47.5	0.0005998190617217024
47.6	0.0006017672941139435
47.7	0.0006037179275030881
47.800000000000004	0.0006056709629647726
47.900000000000006	0.000607626401573806
48.	0.0006095842444041807
48.1	0.0006115444925290937
48.2	0.0006135071470209563
48.300000000000004	0.0006154722089514119
48.400000000000006	0.0006174396793913513
48.5	0.000619409559410931
48.6	0.0006213818500795851
48.7	0.0006233565524660383
48.800000000000004	0.0006253336676383344
48.900000000000006	0.0006273131966638341
49.	0.0006292951406092423
49.1	0.0006312795005406254
49.2	0.0006332662775234174
49.300000000000004	0.0006352554726224444
49.400000000000006	0.0006372470869019346
49.5	0.0006392411214255383
49.6	0.0006412375772563422
49.7	0.0006432364554568832
49.800000000000004	0.0006452377570891664
49.900000000000006	0.0006472414832146807
50.	0.0006492476348944144
50.1	0.0006512562131888701
50.2	0.0006532672191580808
50.300000000000004	0.0006552806538616256
50.400000000000006	0.0006572965183586466
50.5	0.0006593148137078628
50.6	0.000661335540967587
50.7	0.0006633587011957385
50.800000000000004	0.0006653842954498655
50.900000000000006	0.0006674123247871527
51.	0.0006694427902644446
51.1	0.0006714756929382521
51.2	0.0006735110338647746
51.300000000000004	0.0006755488140999144
51.400000000000006	0.0006775890346992945
51.5	0.0006796316967182636
51.6	0.0006816768012119264
51.7	0.0006837243492351457
51.800000000000004	0.0006857743418425656
51.900000000000006	0.0006878267800886259
52.	0.0006898816650275743
52.1	0.0006919389977112743
52.2	0.000693998779195596
52.300000000000004	0.0006960610105343887
52.400000000000006	0.0006981256927812878
52.5	0.0007001928269898094
52.6	0.0007022624142133712
52.7	0.0007043344555053074
52.800000000000004	0.0007064089519188788
52.900000000000006	0.0007084859045072925
53.	0.000710565314323715
53.1	0.0007126471824212854
53.2	0.0007147315098531314
53.300000000000004	0.0007168182976723871
53.400000000000006	0.0007189075469322001
53.5	0.0007209992586857506
53.6	0.0007230934339862694
53.7	0.000725190073887044
53.800000000000004	0.0007272891794414396
53.900000000000006	0.000729390751702912
54.	0.0007314947917250187
54.1	0.0007336013005614379
54.2	0.0007357102792659746
54.300000000000004	0.0007378217288925889
54.400000000000006	0.0007399356504953928
54.5	0.000742052045128679
54.6	0.0007441709138469242
54.7	0.0007462922577048071
54.800000000000004	0.0007484160777572275
54.900000000000006	0.0007505423750593064
55.	0.0007526711506664173
55.1	0.0007548024056341834
55.2	0.0007569361410185024
55.300000000000004	0.000759072357875553
55.400000000000006	0.0007612110572618109
55.5	0.0007633522402340687
55.6	0.0007654959078494361
55.7	0.0007676420611653604
55.800000000000004	0.0007697907012396476
55.900000000000006	0.0007719418291304565
56.	0.000774095445896329
56.1	0.0007762515525961954
56.2	0.0007784101502893899
56.300000000000004	0.0007805712400356602
56.400000000000006	0.0007827348228951848
56.5	0.0007849008999285807
56.6	0.0007870694721969214
56.7	0.0007892405407617462
56.800000000000004	0.0007914141066850738
56.900000000000006	0.0007935901710294152
57.	0.0007957687348577876
57.1	0.0007979497992337191
57.2	0.0008001333652212747
57.300000000000004	0.0008023194338850543
57.400000000000006	0.0008045080062902178
57.5	0.0008066990835024841
57.6	0.0008088926665881574
57.7	0.0008110887566141299
57.800000000000004	0.0008132873546478924
57.900000000000006	0.0008154884617575533
58.	0.0008176920790118479
58.1	0.0008198982074801499
58.2	0.00082210684823248
58.300000000000004	0.0008243180023395222
58.400000000000006	0.0008265316708726342
58.5	0.0008287478549038597
58.6	0.0008309665555059364
58.7	0.0008331877737523107
58.800000000000004	0.0008354115107171523
58.900000000000006	0.0008376377674753573
59.	0.0008398665451025658
59.1	0.0008420978446751707
59.2	0.0008443316672703327
59.300000000000004	0.0008465680139659872
59.400000000000006	0.0008488068858408534
59.5	0.000851048283974455
59.6	0.0008532922094471195
59.7	0.0008555386633400023
59.800000000000004	0.0008577876467350782
59.900000000000006	0.000860039160715175
60.	0.0008622932063639662
60.1	0.0008645497847659991
60.2	0.0008668088970066829
60.300000000000004	0.0008690705441723184
60.400000000000006	0.0008713347273501042
60.5	0.0008736014476281387
60.6	0.0008758707060954418
60.7	0.0008781425038419623
60.800000000000004	0.0008804168419585815
60.900000000000006	0.0008826937215371304
61.	0.0008849731436704028
61.1	0.0008872551094521523
61.2	0.0008895396199771223
61.300000000000004	0.0008918266763410339
61.400000000000006	0.0008941162796406138
61.5	0.0008964084309735963
61.6	0.0008987031314387365
61.7	0.0009010003821358139
61.800000000000004	0.0009033001841656519
61.900000000000006	0.0009056025386301185
62.	0.0009079074466321445
62.1	0.0009102149092757262
62.2	0.0009125249276659397
62.300000000000004	0.0009148375029089425
62.400000000000006	0.0009171526361119995
62.5	0.0009194703283834775