1.	0.06820408400253618
1.1	0.07947601372287955
1.2	0.09113223614808405
1.3	0.10318690474816672
1.4	0.12590221139205007
1.5	0.14068920418682473
1.6	0.15557394581068407
1.7000000000000002	0.17077526704336563
1.8	0.18625442194949177
1.9	0.20197685125216333
2.	0.21791341651120627
2.1	0.2340420846655526
2.2	0.25035060543712795
2.3	0.26684128999510515
2.4000000000000004	0.283540547226487
2.5	0.30052070100128553
2.6	0.31796103622310457
2.7	0.33639351382268956
2.8	0.32902130238373567
2.9000000000000004	0.3300734900551997
3.	0.3375207160315143
3.1	0.3461943751724391
3.2	0.35552854955738333
3.3000000000000003	0.3652873486251115
3.4000000000000004	0.3753412326232148
3.5	0.38560786957205195
3.6	0.39084587665662635
3.7	0.3974287763113021
3.8000000000000003	0.4054101080371729
3.9000000000000004	0.4139795715081563
4.	0.4228965889168218
4.1	0.43204493074096284
4.2	0.4413554903086138
4.300000000000001	0.4507819903779562
4.4	0.4602909735274673
4.5	0.469856943888646
4.6	0.47945972797670866
4.7	0.4890829177727634
4.800000000000001	0.4987128923595813
4.9	0.5379916221667119
5.	0.5476945057516874
5.1000000000000005	0.557351380303123
5.2	0.5669545513342954
5.3	0.5764974482319063
5.4	0.5859744603322058
5.5	0.595380807579343
5.6000000000000005	0.6047124366476594
5.7	0.6139659366850282
5.800000000000001	0.6231384698611497
5.9	0.632227713127434
6.	0.6412318098198039
6.1000000000000005	0.6501493288998359
6.2	0.6589792302007559
6.300000000000001	0.6677208355386499
6.4	0.6763738045336827
6.5	0.6849381145522974
6.6000000000000005	0.6934140447292784
6.7	0.701802163393967
6.800000000000001	0.7101033192251046
6.9	0.7183186364554789
7.	0.7264495134566169
7.1000000000000005	0.7344976255280499
7.2	0.7424649318078212
7.300000000000001	0.7503536888512112
7.4	0.7581664682034546
7.5	0.7659061820868258
7.6000000000000005	0.7735761178688498
7.7	0.7811799833396705
7.800000000000001	0.7887219659775083
7.9	0.7962068095264844
8.	0.8036399147149645
8.100000000000001	0.811027471359161
8.2	0.8183766333799884
8.3	0.8256957540223078
8.4	0.8329947069607252
8.5	0.8402853332106223
8.600000000000001	0.8475820784207341
8.7	0.8549029263909993
8.8	0.8622708153006731
8.9	0.8697158764555154
9.	0.8772791609141584
9.1	0.8850192645032253
9.200000000000001	0.8930251734243632
9.3	0.9014443569537944
9.4	0.9105563906164176
9.5	0.9210370855811018
9.6	0.9361787409783734
9.700000000000001	0.014088878949158393
9.8	0.012690517095106454
9.9	0.0118163573178987
10.	0.011176411819937098
10.1	0.01067242255907734
10.200000000000001	0.010257841531843979
10.3	0.00990664802915874
10.4	0.00960273766606901
10.5	0.009335423607563967
10.600000000000001	0.009097242704294285
10.700000000000001	0.008882775123255159
10.8	0.008687960928803785
10.9	0.00850968114974234
11.	0.00834548894277183
11.100000000000001	0.008193430462637822
11.200000000000001	0.008051921686817974
11.3	0.007919661418222602
11.4	0.007795568406814779
11.5	0.007678734981883861
11.600000000000001	0.007568392250872581
11.700000000000001	0.0074638835677746625
11.8	0.007364644021737294
11.9	0.007270184379776092
12.	0.007180078373124872
12.100000000000001	0.007093952526930476
12.200000000000001	0.007011477947774839
12.3	0.0069323636348845065
12.4	0.006856350989096447
12.5	0.006783209272095024
12.600000000000001	0.006712731826022495
12.700000000000001	0.0066447329063353934
12.8	0.006579045012871716
12.9	0.006515516628562165
13.	0.006454010293537489
13.100000000000001	0.006394400957204897
13.200000000000001	0.006336574561734956
13.3	0.006280426819315866
13.4	0.006225862152447325
13.5	0.006172792772063527
13.600000000000001	0.006121137872690087
13.700000000000001	0.006070822927394979
13.8	0.006021779068174793
13.9	0.005973942539770995
14.	0.005927254216705483
14.100000000000001	0.0058816591752635355
14.200000000000001	0.005837106312934142
14.3	0.005793548009304724
14.4	0.005750939823140849
14.5	0.005709240221162844
14.600000000000001	0.005668410334663167
14.700000000000001	0.005628413740641539
14.8	0.005589216264585334
14.9	0.005550785802405147
15.	0.005513092159355931
15.100000000000001	0.005476106904064419
15.200000000000001	0.005439803236057055
15.3	0.00540415586520612
15.4	0.005369140901991565
15.5	0.005334735757372688
15.600000000000001	0.005300919051304932
15.700000000000001	0.005267670529032397
15.8	0.005234970984386004
15.9	0.005202802189404156
16.	0.005171146829668559
16.1	0.005139988444814163
16.200000000000003	0.005109311373730529
16.3	0.005079100704027529
16.4	0.00504934222536693
16.5	0.005020022386308883
16.6	0.004991128254415571
16.700000000000003	0.004962647479256621
16.8	0.004934568258108468
16.9	0.004906879304110476
17.	0.004879569816672299
17.1	0.004852629453946666
17.2	0.004826048307198995
17.3	0.004799816876921205
17.400000000000002	0.004773926050550912
17.5	0.004748367081669832
17.6	0.004723131570566585
17.7	0.004698211446056622
17.8	0.004673598948470408
17.900000000000002	0.004649286613727427
18.	0.0046252672583809796
18.1	0.00460153396560873
18.2	0.004578080072054194
18.3	0.0045548991554639345
18.400000000000002	0.004531985023063932
18.5	0.0045093317006233554
18.6	0.004486933422158071
18.7	0.004464784620229975
18.8	0.004442879916801601
18.900000000000002	0.004421214114608819
19.	0.004399782189017064
19.1	0.004378579280329253
19.2	0.0043576006865163105
19.3	0.004336841856345475
19.400000000000002	0.004316298382864139
19.5	0.004295965997253017
19.6	0.004275840562988207
19.7	0.004255918070311746
19.8	0.00423619463098801
19.900000000000002	0.004216666473328482
20.	0.004197329937468758
20.1	0.004178181470882674
20.200000000000003	0.00415921762411954
20.3	0.004140435046751359
20.400000000000002	0.004121830483517903
20.5	0.004103400770658102
20.6	0.0040851428324172765
20.700000000000003	0.004067053677720118
20.8	0.0040491303970002016
20.900000000000002	0.004031370159176271
21.	0.0040137702087714045
21.1	0.00399632786316157
21.200000000000003	0.003979040509947802
21.3	0.003961905604449091
21.400000000000002	0.00394492066730622
21.5	0.00392808328219154
21.6	0.003911391093619168
21.700000000000003	0.0038948418048503084
21.8	0.003878433175888882
21.900000000000002	0.0038621630215627746
22.	0.0038460292096864036
22.1	0.0038300296593004888
22.200000000000003	0.003814162338985158
22.3	0.003798425265242855
22.400000000000002	0.0037828165009474017
22.5	0.003767334153856269
22.6	0.0037519763751827726
22.700000000000003	0.003736741358227023
22.8	0.003721627337056007
22.900000000000002	0.0037066325852404243
23.	0.0036917554146417347
23.1	0.003676994174242955
23.200000000000003	0.003662347249025736
23.3	0.003647813058890189
23.400000000000002	0.003633390057615686
23.5	0.0036190767318606803
23.6	0.003604871600199847
23.700000000000003	0.003590773212196854
23.8	0.0035767801475112193
23.900000000000002	0.0035628910150376923
24.	0.0035491044520768516
24.1	0.0035354191235354012
24.200000000000003	0.0035218337211550994
24.3	0.0035083469627688775
24.400000000000002	0.003494957591583183
24.5	0.0034816643754852993
24.6	0.0034684661063743016
24.700000000000003	0.003455361599511125
24.8	0.0034423496929102096
24.900000000000002	0.0034294292467209266
25.	0.0034165991426508813
25.1	0.0034038582834031383
25.200000000000003	0.003391205592132212
25.3	0.003378640011917901
25.400000000000002	0.0033661605052564343
25.5	0.003353766053568086
25.6	0.003341455656720734
25.700000000000003	0.0033292283325687152
25.8	0.0033170831165062883
25.900000000000002	0.0033050190610353146
26.	0.0032930352353465046
26.1	0.003281130724913683
26.200000000000003	0.0032693046311007097
26.3	0.0032575560707804605
26.400000000000002	0.0032458841759655022
26.5	0.003234288093449972
26.6	0.003222766984462287
26.700000000000003	0.003211320024328266
26.8	0.003199946402148931
26.900000000000002	0.003188645320470086
27.	0.003177415994986548
27.1	0.0031662576542405923
27.200000000000003	0.0031551695393312413
27.3	0.0031441509036325183
27.400000000000002	0.0031332010125197938
27.5	0.003122319143103945
27.6	0.0031115045839730823
27.700000000000003	0.0031007566349414806
27.8	0.0030900746068056166
27.900000000000002	0.003079457821106971
28.	0.003068905609901349
28.1	0.00305841731553462
28.200000000000003	0.0030479922904245132
28.3	0.00303762989684843
28.400000000000002	0.003027329506736865
28.5	0.0030170905014724842
28.6	0.003006912271694517
28.700000000000003	0.0029967942171083284
28.8	0.002986735746300038
28.900000000000002	0.0029767362765559897
29.	0.0029667952336869152
29.1	0.0029569120518541697
29.200000000000003	0.002947086173410082
29.3	0.002937317048728927
29.400000000000002	0.002927604136049871
29.5	0.0029179469013229024
29.6	0.002908344818058353
29.700000000000003	0.0028987973671800887
29.8	0.0028893040368824347
29.900000000000002	0.00287986432249061
30.	0.0028704777263246087
30.1	0.00286114375756639
30.200000000000003	0.0028518619321303887
30.3	0.0028426317725370083
30.400000000000002	0.0028334528077893642
30.5	0.002824324573252774
30.6	0.002815246610537305
30.700000000000003	0.0028062184673829605
30.8	0.0027972396975476832
30.900000000000002	0.002788309860697916
31.	0.0027794285223017453
31.1	0.0027705952535245193
31.200000000000003	0.0027618096311268917
31.3	0.002753071237365168
31.400000000000002	0.002744379659893996
31.5	0.0027357344916711947
31.6	0.002727135330865891
31.700000000000003	0.0027185817807644477
31.8	0.002710073449684465
31.900000000000002	0.002701609950887286
32.	0.0026931909024928654
32.1	0.002684815927396707
32.2	0.0026764846531885985
32.3	0.0026681967120731364
32.400000000000006	0.002659951740791969
32.5	0.0026517493805477102
32.6	0.0026435892769295305
32.7	0.0026354710798402728
32.8	0.002627394443425198
32.900000000000006	0.002619359026002185
33.	0.002611364489993415
33.1	0.0026034105018585144
33.2	0.002595496732029059
33.300000000000004	0.0025876228548444707
33.4	0.0025797885484892175
33.5	0.0025719934949313353
33.6	0.0025642373798621643
33.7	0.0025565198926373613
33.800000000000004	0.0025488407262191067
33.9	0.0025411995771194205
34.	0.0025335961453447045
34.1	0.002526030134341337
34.2	0.0025185012509423765
34.300000000000004	0.002511009205313121
34.4	0.0025035537109056403
34.5	0.0024961344844044997
34.6	0.0024887512456772264
34.7	0.002481403717726858
34.800000000000004	0.002474091626644626
34.9	0.0024668147015635524
35.	0.0024595726746129243
35.1	0.0024523652808736253
35.2	0.00244519225833438
35.300000000000004	0.0024380533478487424
35.4	0.002430948293092976
35.5	0.0024238768405246813
35.6	0.002416838739342197
35.7	0.002409833741444784
35.800000000000004	0.0024028616013935574
35.9	0.0023959220763730815
36.	0.002389014926153721
36.1	0.0023821399130546867
36.2	0.0023752968019077557
36.300000000000004	0.0023684853600215872
36.4	0.002361705357146777
36.5	0.0023549565654414927
36.6	0.0023482387594377253
36.7	0.002341551716008162
36.800000000000004	0.0023348952143336416
36.9	0.002328269035871171
37.	0.002321672964322534
37.1	0.00231510678560344
37.2	0.00230857028781417
37.300000000000004	0.0023020632612099482
37.4	0.0022955854981652943
37.5	0.0022891367931537295
37.6	0.0022827169427163192
37.7	0.0022763257454339
37.800000000000004	0.0022699630018998135
37.9	0.0022636285146930292
38.	0.0022573220883517985
38.1	0.0022510435293477044
38.2	0.0022447926460601804
38.300000000000004	0.0022385692487514363
38.4	0.0022323731495418114
38.5	0.002226204162385535
38.6	0.0022200621030468944
38.7	0.0022139467890767957
38.800000000000004	0.002207858039789709
38.9	0.0022017956762409923
39.	0.002195759521204577
39.1	0.0021897493991510494
39.2	0.002183765136226018
39.300000000000004	0.0021778065602289383
39.400000000000006	0.002171873500589756
39.5	0.0021659657883543403
39.6	0.0021600832561607217
39.7	0.0021542257382179846
39.800000000000004	0.0021483930702878577
39.900000000000006	0.0021425850896653934
40.	0.002136801635160027
40.1	0.0021310425470768587
40.2	0.0021253076671983013
40.300000000000004	0.0021195968387659483
40.400000000000006	0.0021139099064627753
40.5	0.0021082467163955677
40.6	0.0021026071160776838
40.7	0.002096990954412017
40.800000000000004	0.002091398081674256
40.900000000000006	0.002085828349496403
41.	0.0020802816108505115
41.1	0.0020747577200327222
41.2	0.0020692565326474698
41.300000000000004	0.002063777905592
41.400000000000006	0.00205832169704108
41.5	0.002052887766431924
41.6	0.0020474759744494005
41.7	0.002042086183011376
41.800000000000004	0.0020367182552543666
41.900000000000006	0.0020313720555193266
42.	0.002026047449337685
42.1	0.0020207443034175833
42.2	0.002015462485630309
42.300000000000004	0.0020102018649969275
42.400000000000006	0.00200496231167508
42.5	0.0019997436969460517
42.6	0.001994545893201942
42.7	0.0019893687739330453
42.800000000000004	0.00198421221371543
42.900000000000006	0.001979076088198709
43.	0.0019739602740939093
43.1	0.0019688646491616097
43.2	0.0019637890922001677
43.300000000000004	0.0019587334830341767
43.400000000000006	0.0019536977025030313
43.5	0.0019486816324496832
43.6	0.0019436851557095172
43.7	0.0019387081560994928
43.800000000000004	0.0019337505184072834
43.900000000000006	0.0019288121283806605
44.	0.0019238928727169987
44.1	0.001918992639052933
44.2	0.0019141113159541433
44.300000000000004	0.0019092487929053235
44.400000000000006	0.0019044049603001902
44.5	0.0018995797094317577
44.6	0.0018947729324826264
44.7	0.0018899845225154811
44.800000000000004	0.0018852143734636839
44.900000000000006	0.0018804623801219836
45.	0.0018757284381373804
45.1	0.0018710124440001
45.2	0.0018663142950346749
45.300000000000004	0.0018616338893911477
45.400000000000006	0.001856971126036409
45.5	0.0018523259047456373
45.6	0.001847698126093865
45.7	0.0018430876914475823
45.800000000000004	0.0018384945029565993
45.900000000000006	0.0018339184635458561
46.	0.0018293594769074365
46.1	0.0018248174474926639
46.2	0.001820292280504272
46.300000000000004	0.0018157838818887192
46.400000000000006	0.0018112921583285574
46.5	0.0018068170172349505
46.6	0.0018023583667402382
46.7	0.001797916115690612
46.800000000000004	0.0017934901736389123
46.900000000000006	0.001789080450837478
47.	0.001784686858231096
47.1	0.0017803093074500627
47.2	0.0017759477108032855
47.300000000000004	0.0017716019812715465
47.400000000000006	0.0017672720325007628
47.5	0.0017629577787953907
47.6	0.0017586591351118938
47.7	0.0017543760170522916
47.800000000000004	0.0017501083408577754
47.900000000000006	0.0017458560234024521
48.	0.001741618982187092
48.1	0.0017373971353329975
48.2	0.0017331904015759631
48.300000000000004	0.0017289987002602667
48.400000000000006	0.0017248219513327368
48.5	0.00172066007533696
48.6	0.0017165129934074504
48.7	0.0017123806272639833
48.800000000000004	0.0017082628992059596
48.900000000000006	0.0017041597321068036
49.	0.001700071049408498
49.1	0.0016959967751161429
49.2	0.0016919368337925751
49.300000000000004	0.001687891150553067
49.400000000000006	0.0016838596510600934
49.5	0.0016798422615181326
49.6	0.0016758389086685688
49.7	0.0016718495197845932
49.800000000000004	0.001667874022666269
49.900000000000006	0.0016639123456355265
50.	0.0016599644175313158
50.1	0.0016560301677047637
50.2	0.0016521095260144194
50.300000000000004	0.001648202422821523
50.400000000000006	0.0016443087889853616
50.5	0.00164042855585863
50.6	0.0016365616552829277
50.7	0.0016327080195842128
50.800000000000004	0.0016288675815683753
50.900000000000006	0.0016250402745168326
51.	0.0016212260321821997
51.1	0.001617424788783942
51.2	0.001613636479004161
51.300000000000004	0.0016098610379834065
51.400000000000006	0.0016060984013164894
51.5	0.0016023485050483796
51.6	0.0015986112856701564
51.7	0.0015948866801149977
51.800000000000004	0.0015911746257541882
51.900000000000006	0.0015874750603931962
52.	0.0015837879222678143
52.1	0.001580113150039306
52.2	0.00157645068279348
52.300000000000004	0.001572800460034209
52.400000000000006	0.0015691624216805475
52.5	0.0015655365080630426
52.6	0.0015619226599201768
52.7	0.001558320818394703
52.800000000000004	0.0015547309250301526
52.900000000000006	0.0015511529217672752
53.	0.001547586750940586
53.1	0.0015440323552749166
53.2	0.0015404896778820135
53.300000000000004	0.0015369586622571956
53.400000000000006	0.0015334392522759928
53.5	0.0015299313921908677
53.6	0.001526435026627974
53.7	0.001522950100583902
53.800000000000004	0.0015194765594225307
53.900000000000006	0.0015160143488718262
54.	0.0015125634150207705
54.1	0.0015091237043162481
54.2	0.0015056951635599707
54.300000000000004	0.001502277739905518
54.400000000000006	0.0014988713808552795
54.5	0.0014954760342575418
54.6	0.0014920916483035418
54.7	0.0014887181715245597
54.800000000000004	0.0014853555527890878
54.900000000000006	0.0014820037412999574
55.	0.001478662686591555
55.1	0.0014753323385270248
55.2	0.001472012647295543
55.300000000000004	0.0014687035634095818
55.400000000000006	0.0014654050377021974
55.5	0.0014621170213244246
55.6	0.0014588394657425814
55.7	0.0014555723227356718
55.800000000000004	0.001452315544392838
55.900000000000006	0.0014490690831107384
56.	0.001445832891591092
56.1	0.001442606922838095
56.2	0.0014393911301560226
56.300000000000004	0.0014361854671466909
56.400000000000006	0.0014329898877070988
56.5	0.0014298043460269675
56.6	0.001426628796586409
56.7	0.0014234631941535182
56.800000000000004	0.0014203074937820883
56.900000000000006	0.0014171616508092562
57.	0.0014140256208532494
57.1	0.0014108993598110897
57.2	0.001407782823856399
57.300000000000004	0.0014046759694371252
57.400000000000006	0.0014015787532733763
57.5	0.0013984911323552502
57.6	0.001395413063940651
57.7	0.0013923445055531755
57.800000000000004	0.0013892854149800153
57.900000000000006	0.0013862357502698202
58.	0.001383195469730691
58.1	0.001380164531928056
58.2	0.00137714289568271
58.300000000000004	0.0013741305200687412
58.400000000000006	0.0013711273644115953
58.5	0.0013681333882860642
58.6	0.0013651485515143427
58.7	0.0013621728141641066
58.800000000000004	0.0013592061365465928
58.900000000000006	0.0013562484792146803
59.	0.0013532998029610365
59.1	0.001350360068816253
59.2	0.001347429238046999
59.300000000000004	0.0013445072721541944
59.400000000000006	0.001341594132871185
59.5	0.0013386897821619933
59.6	0.0013357941822195064
59.7	0.0013329072954637354
59.800000000000004	0.0013300290845400695
59.900000000000006	0.001327159512317559
60.	0.0013242985418872035
60.1	0.001321446136560252
60.2	0.0013186022598665448
60.300000000000004	0.0013157668755528246
60.400000000000006	0.001312939947581145
60.5	0.0013101214401271633
60.6	0.001307311317578597
60.7	0.0013045095445336052
60.800000000000004	0.0013017160857991652
60.900000000000006	0.001298930906389565
61.	0.0012961539715247992
61.1	0.001293385246629042
61.2	0.0012906246973291562
61.300000000000004	0.001287872289453103
61.400000000000006	0.0012851279890285317
61.5	0.0012823917622812357
61.6	0.0012796635756336969
61.7	0.0012769433957036248
61.800000000000004	0.0012742311893025348
61.900000000000006	0.001271526923434284
62.	0.001268830565293671
62.1	0.0012661420822650353
62.2	0.0012634614419208376
62.300000000000004	0.001260788612020312
62.400000000000006	0.0012581235605080793
62.5	0.0012554662555128012