1	0.216763	0.218233	0.157249	0.336182	0.117131	0.605322
1.5	0.217068	0.218239	0.157254	0.336273	0.117135	0.605585
2	0.218475	0.218437	0.157396	0.336661	0.117241	0.606949
2.5	0.218792	0.216713	0.156154	0.33397	0.116316	0.602079
4.5	0.210144	0.210351	0.15157	0.325077	0.112901	0.579911
5	0.208265	0.208236	0.150046	0.321802	0.111766	0.573634
5.5	0.205546	0.209043	0.150627	0.323077	0.112199	0.575379
6	0.207108	0.209837	0.151199	0.324351	0.112625	0.57713
6.5	0.208221	0.21065	0.151785	0.325648	0.113061	0.578929
7	0.206467	0.211481	0.152384	0.326959	0.113507	0.580758
7.5	0.207853	0.211652	0.152507	0.327237	0.113599	0.580978
8	0.207955	0.207973	0.149856	0.321046	0.111625	0.574306
12	0.204843	0.20804	0.149904	0.32097	0.11166	0.574122
12.5	0.206912	0.213928	0.154147	0.330972	0.114821	0.584494
13	0.207362	0.215599	0.155351	0.334343	0.115718	0.587936
13.5	0.208033	0.216253	0.155822	0.335371	0.116069	0.589116
14	0.208488	0.216602	0.156074	0.335915	0.116256	0.589742
14.5	0.208492	0.216925	0.156306	0.336421	0.116429	0.590315
15	0.20843	0.217237	0.156531	0.336912	0.116597	0.590874
